verilog/riscv32IM_single_cycle/gtkwaveforms/riscv32iSingleCycle.vcd
$date
	Sun Nov  5 23:14:05 2023
$end
$version
	Icarus Verilog
$end
$timescale
	1ps
$end
$scope module riscv32isinglecycle_tb $end
$var parameter 32 ! p $end
$var reg 1 " clk $end
$var reg 1 # rst $end
$scope module DUT $end
$var wire 8 $ CONST4 [7:0] $end
$var wire 1 " clk $end
$var wire 1 % load $end
$var wire 1 # rst $end
$var wire 1 & zf $end
$var wire 32 ' write_data_reg_file [31:0] $end
$var wire 1 ( vf $end
$var wire 1 ) sf $end
$var wire 32 * rs2 [31:0] $end
$var wire 32 + rs1 [31:0] $end
$var wire 1 , reg_write $end
$var wire 32 - read_data_out [31:0] $end
$var wire 32 . r [31:0] $end
$var wire 8 / pc_target_addr [7:0] $end
$var wire 32 0 pc_plus_immediate [31:0] $end
$var wire 8 1 pc_next [7:0] $end
$var wire 8 2 pc_current_address [7:0] $end
$var wire 2 3 mem_write [1:0] $end
$var wire 3 4 mem_read [2:0] $end
$var wire 2 5 mem_out_sel [1:0] $end
$var wire 1 6 jump $end
$var wire 32 7 immediate [31:0] $end
$var wire 1 8 cf $end
$var wire 8 9 branch_target [7:0] $end
$var wire 2 : branch_sel [1:0] $end
$var wire 1 ; branch $end
$var wire 32 < b [31:0] $end
$var wire 5 = alufn [4:0] $end
$var wire 1 > alu_src $end
$var wire 3 ? alu_op [2:0] $end
$var wire 32 @ Instruction [31:0] $end
$var parameter 32 A FUNCT3 $end
$var parameter 32 B FUNCT7 $end
$var parameter 32 C MEM_ADDR $end
$var parameter 32 D N $end
$var parameter 32 E OPCODE $end
$var parameter 32 F RD $end
$var parameter 32 G REG_ADDR $end
$var parameter 32 H RS1 $end
$var parameter 32 I RS2 $end
$var parameter 32 J SHAMT $end
$scope module aluCu_inst $end
$var wire 3 K alu_op [2:0] $end
$var wire 32 L Instruction [31:0] $end
$var reg 5 M alufn [4:0] $end
$scope begin COMBINATIONAL_OUTPUT $end
$upscope $end
$upscope $end
$scope module aluSrc_mux $end
$var wire 32 N sel_out [31:0] $end
$var wire 1 > sel_in $end
$var wire 32 O lo_in [31:0] $end
$var wire 32 P hi_in [31:0] $end
$var parameter 32 Q N $end
$upscope $end
$scope module alu_inst $end
$var wire 32 R a [31:0] $end
$var wire 5 S alufn [4:0] $end
$var wire 32 T b [31:0] $end
$var wire 32 U op_b [31:0] $end
$var wire 1 ( vf $end
$var wire 1 & zf $end
$var wire 5 V shamt [4:0] $end
$var wire 32 W sh [31:0] $end
$var wire 1 ) sf $end
$var wire 32 X rs1 [31:0] $end
$var wire 32 Y remu [31:0] $end
$var wire 32 Z rem [31:0] $end
$var wire 64 [ mulu_temp [63:0] $end
$var wire 32 \ mulhu [31:0] $end
$var wire 32 ] mulhsu [31:0] $end
$var wire 32 ^ mulh [31:0] $end
$var wire 64 _ mul_temp [63:0] $end
$var wire 32 ` mul [31:0] $end
$var wire 32 a divu [31:0] $end
$var wire 32 b div [31:0] $end
$var wire 1 8 cf $end
$var wire 32 c add [31:0] $end
$var reg 32 d r [31:0] $end
$scope module shifter0 $end
$var wire 32 e a [31:0] $end
$var wire 32 f gnd [31:0] $end
$var wire 5 g shamt [4:0] $end
$var wire 2 h type [1:0] $end
$var reg 32 i r [31:0] $end
$upscope $end
$upscope $end
$scope module branchCu_inst $end
$var wire 3 j Instruction [14:12] $end
$var wire 1 8 cf $end
$var wire 3 k func3 [2:0] $end
$var wire 1 ) sf $end
$var wire 1 ( vf $end
$var wire 1 & zf $end
$var wire 1 6 jump $end
$var wire 2 l branch_sel [1:0] $end
$var wire 1 ; branch $end
$upscope $end
$scope module cu_inst $end
$var wire 1 , reg_write $end
$var wire 2 m mem_write [1:0] $end
$var wire 3 n mem_read [2:0] $end
$var wire 2 o mem_out_sel [1:0] $end
$var wire 1 6 jump $end
$var wire 1 ; branch $end
$var wire 1 > alu_src $end
$var wire 3 p alu_op [2:0] $end
$var wire 32 q Instruction [31:0] $end
$var reg 14 r flags [13:0] $end
$scope begin COMBINATIONAL_OUTPUT $end
$upscope $end
$upscope $end
$scope module dataMem_inst $end
$var wire 1 " clk $end
$var wire 3 s mem_read [2:0] $end
$var wire 2 t mem_write [1:0] $end
$var wire 32 u r [31:0] $end
$var wire 1 # rst $end
$var wire 32 v rs2 [31:0] $end
$var reg 32 w read_data_out [31:0] $end
$var integer 32 x i [31:0] $end
$scope begin MEM_READ_COMBINATIONAL $end
$upscope $end
$scope begin MEM_WRITE_SEQ $end
$upscope $end
$upscope $end
$scope module immGen_inst $end
$var wire 32 y IR [31:0] $end
$var wire 32 z immediate [31:0] $end
$var wire 32 { Instruction [31:0] $end
$var reg 32 | Imm [31:0] $end
$upscope $end
$scope module instMem_inst $end
$var wire 32 } Instruction [31:0] $end
$var wire 8 ~ pc_current_address [7:0] $end
$upscope $end
$scope module pc_inst $end
$var wire 1 " clk $end
$var wire 1 % load $end
$var wire 8 !" pc_current_address [7:0] $end
$var wire 1 # rst $end
$var wire 8 "" pc_target_addr [7:0] $end
$var reg 8 #" pc [7:0] $end
$upscope $end
$scope module pc_plus_Imm_ToTarget $end
$var wire 8 $" A_in [7:0] $end
$var wire 8 %" B_in [7:0] $end
$var wire 1 &" gnd $end
$var wire 8 '" sum_out [7:0] $end
$var parameter 32 (" N $end
$upscope $end
$scope module pc_plus_Imm_ToWriteReg $end
$var wire 32 )" A_in [31:0] $end
$var wire 32 *" B_in [31:0] $end
$var wire 1 +" gnd $end
$var wire 32 ," sum_out [31:0] $end
$var parameter 32 -" N $end
$upscope $end
$scope module pc_plus_four $end
$var wire 8 ." A_in [7:0] $end
$var wire 8 /" B_in [7:0] $end
$var wire 1 0" gnd $end
$var wire 8 1" sum_out [7:0] $end
$var parameter 32 2" N $end
$upscope $end
$scope module regFile_inst $end
$var wire 32 3" Instruction [31:0] $end
$var wire 1 " clk $end
$var wire 1 , reg_write $end
$var wire 32 4" rs1 [31:0] $end
$var wire 32 5" rs2 [31:0] $end
$var wire 1 # rst $end
$var wire 32 6" write_data_reg_file [31:0] $end
$var wire 5 7" rs2_in [4:0] $end
$var wire 5 8" rs1_in [4:0] $end
$var wire 5 9" rd_in [4:0] $end
$var integer 32 :" i [31:0] $end
$scope begin RESET $end
$upscope $end
$upscope $end
$scope module targetAddr_mux $end
$var wire 8 ;" A_00 [7:0] $end
$var wire 8 <" B_01 [7:0] $end
$var wire 8 =" C_10 [7:0] $end
$var wire 8 >" D_11 [7:0] $end
$var wire 2 ?" sel [1:0] $end
$var wire 8 @" sel_out [7:0] $end
$var parameter 32 A" N $end
$upscope $end
$scope module writeToReg_mux $end
$var wire 32 B" A_00 [31:0] $end
$var wire 32 C" B_01 [31:0] $end
$var wire 32 D" C_10 [31:0] $end
$var wire 32 E" D_11 [31:0] $end
$var wire 2 F" sel [1:0] $end
$var wire 32 G" sel_out [31:0] $end
$var parameter 32 H" N $end
$upscope $end
$upscope $end
$upscope $end
$enddefinitions $end
$comment Show the parameter values. $end
$dumpall
b100000 H"
b1000 A"
b1000 2"
b100000 -"
b1000 ("
b100000 Q
b101 J
b101 I
b101 H
b101 G
b101 F
b111 E
b100000 D
b1000 C
b111 B
b11 A
b10100 !
$end
#0
$dumpvars
b10011100010000000000000000 G"
b1 F"
b100 E"
b10011100010000000000000000 D"
b10011100010000000000000000 C"
bx B"
b100 @"
b0 ?"
b0 >"
b0 ="
b0 <"
b100 ;"
b100000 :"
b110 9"
b10 8"
b111 7"
b10011100010000000000000000 6"
b0 5"
b0 4"
b10011100010000001100110111 3"
b100 1"
00"
b0 /"
b100 ."
b10011100010000000000000000 ,"
0+"
b10011100010000000000000000 *"
b0 )"
b0 '"
0&"
b0 %"
b0 $"
b0 #"
b100 ""
b0 !"
b0 ~
b10011100010000001100110111 }
b10011100010000000000000000 |
b10011100010000001100110111 {
b10011100010000000000000000 z
b10011100010000001100110111 y
b1000000 x
bx w
b0 v
b10011100010000000000000000 u
b0 t
b0 s
b10000011 r
b10011100010000001100110111 q
b0 p
b1 o
b0 n
b0 m
b0 l
b0 k
b0 j
b0 i
b11 h
b0 g
b0 f
b0 e
b10011100010000000000000000 d
b11111101100011110000000000000000 c
b0 b
b0 a
b0 `
b0 _
b0 ^
b0 ]
b0 \
b0 [
b0 Z
b0 Y
b0 X
b0 W
b0 V
b11111101100011101111111111111111 U
b10011100010000000000000000 T
b11 S
b0 R
b10011100010000000000000000 P
b0 O
b10011100010000000000000000 N
b11 M
b10011100010000001100110111 L
b0 K
b10011100010000001100110111 @
b0 ?
1>
b11 =
b10011100010000000000000000 <
0;
b0 :
b0 9
08
b10011100010000000000000000 7
06
b1 5
b0 4
b0 3
b0 2
b100 1
b10011100010000000000000000 0
b100 /
b10011100010000000000000000 .
bx -
1,
b0 +
b0 *
1)
0(
b10011100010000000000000000 '
0&
1%
b100 $
1#
0"
$end
#20000
b100000 :"
1"
#40000
0"
#60000
b100000 :"
1"
#80000
0"
0#
#100000
0)
0(
1&
b0 c
18
b1000000000000100 '
b1000000000000100 6"
b1000000000000100 G"
b11111111111111111111111111111111 U
b0 .
b0 d
b0 u
b0 C"
b1000 /
b1000 ""
b1000 @"
bx b
bx a
bx Z
bx Y
b0 <
b0 N
b0 T
b10 5
b10 o
b10 F"
0>
b1 8"
b0 7"
b111 9"
b1000000000000000 7
b1000000000000000 P
b1000000000000000 z
b1000000000000000 |
b1000000000000000 *"
b100000001 r
b100 ="
b100 9
b100 '"
b100 <"
b1000 E"
b1000 1
b1000 1"
b1000 ;"
b1000001110010111 y
b1000001110010111 @
b1000001110010111 L
b1000001110010111 q
b1000001110010111 {
b1000001110010111 }
b1000001110010111 3"
b1 ~
b1000000000000100 0
b1000000000000100 ,"
b1000000000000100 D"
b100 )"
b100 2
b100 !"
b100 #"
b100 %"
b100 /"
1"
#120000
0"
#140000
1(
08
b0 h
b0 =
b0 M
b0 S
b1100 /
b1100 ""
b1100 @"
b1 5
b1 o
b1 F"
b11 ?
b11 K
b11 p
b0 '
b0 6"
b0 G"
b0 8"
b0 9"
b0 7
b0 P
b0 z
b0 |
b0 *"
b10110001 r
b1000 ="
b1000 9
b1000 '"
b1000 <"
b1100 E"
b1100 1
b1100 1"
b1100 ;"
b110011 y
b110011 @
b110011 L
b110011 q
b110011 {
b110011 }
b110011 3"
b10 ~
b1000 0
b1000 ,"
b1000 D"
b1000 )"
b1000 2
b1000 !"
b1000 #"
b1000 %"
b1000 /"
1"
#160000
0"
#180000
0(
18
b10000 '
b10000 6"
b10000 G"
b11 h
b11 =
b11 M
b11 S
b10100 /
b10100 ""
b10100 @"
b1000 $"
b10 :
b10 l
b10 ?"
16
b11 5
b11 o
b11 F"
b0 ?
b0 K
b0 p
b1000 7"
b1000 9"
b1000 7
b1000 P
b1000 z
b1000 |
b1000 *"
b10000110000001 r
b10100 ="
b10100 9
b10100 '"
b10100 <"
b10000 E"
b10000 1
b10000 1"
b10000 ;"
b100000000000010001101111 y
b100000000000010001101111 @
b100000000000010001101111 L
b100000000000010001101111 q
b100000000000010001101111 {
b100000000000010001101111 }
b100000000000010001101111 3"
b11 ~
b10100 0
b10100 ,"
b10100 D"
b1100 )"
b1100 2
b1100 !"
b1100 #"
b1100 %"
b1100 /"
1"
#200000
0"
#220000
1)
0(
0&
b11111111111111011100000000000000 c
08
b11000 /
b11000 ""
b11000 @"
b0 >"
b100100000000000000 '
b100100000000000000 6"
b100100000000000000 G"
b0 $"
b0 :
b0 l
b0 ?"
06
b1 5
b1 o
b1 F"
1>
b11111111111111011011111111111111 U
b0 V
b0 g
b100100000000000000 .
b100100000000000000 d
b100100000000000000 u
b100100000000000000 C"
b100 8"
b0 7"
b100100000000000000 7
b100100000000000000 P
b100100000000000000 z
b100100000000000000 |
b100100000000000000 *"
b100 k
b100 j
b10000011 r
b10100 ="
b0 b
b0 a
b0 Z
b0 Y
b100100000000000000 <
b100100000000000000 N
b100100000000000000 T
b10100 9
b10100 '"
b10100 <"
b11000 E"
b11000 1
b11000 1"
b11000 ;"
b100100010000110111 y
b100100010000110111 @
b100100010000110111 L
b100100010000110111 q
b100100010000110111 {
b100100010000110111 }
b100100010000110111 3"
b101 ~
b100100000000010100 0
b100100000000010100 ,"
b100100000000010100 D"
b0 *
b0 O
b0 v
b0 5"
b10100 )"
b10100 2
b10100 !"
b10100 #"
b10100 %"
b10100 /"
1"
#240000
0"
#260000
0)
1(
b1001000000000000000000 W
b1001000000000000000000 i
b11100 '
b11100 6"
b11100 G"
b0 h
0&
b100100000000100100 c
08
b100100 >"
b11111111111111111111111111011011 U
b100 V
b100 g
b0 =
b0 M
b0 S
b100100 /
b100100 ""
b100100 @"
b10100010000000000000000 `
b100100000000100100 .
b100100000000100100 d
b100100000000100100 u
b100100000000100100 C"
b100100 <
b100100 N
b100100 T
b100100 $"
b11 :
b11 l
b11 ?"
16
1;
b11 5
b11 o
b11 F"
b10 ?
b10 K
b10 p
b1000000000000 b
b1000000000000 a
b10100010000000000000000 _
b10100010000000000000000 [
b100100000000000000 R
b100100000000000000 e
b100100000000000000 +
b100100000000000000 X
b100100000000000000 4"
b1000 8"
b100 7"
b100100 7
b100100 P
b100100 z
b100100 |
b100100 *"
b0 k
b0 j
b11000110100011 r
b111100 ="
b111100 9
b111100 '"
b111100 <"
b11100 E"
b11100 1
b11100 1"
b11100 ;"
b10010001000000010001100111 y
b10010001000000010001100111 @
b10010001000000010001100111 L
b10010001000000010001100111 q
b10010001000000010001100111 {
b10010001000000010001100111 }
b10010001000000010001100111 3"
b110 ~
b111100 0
b111100 ,"
b111100 D"
b11000 )"
b11000 2
b11000 !"
b11000 #"
b11000 %"
b11000 /"
1"
#280000
0"
#300000
b101000 /
b101000 ""
b101000 @"
b1010 >"
b11111111111111111111111111110101 U
b1010 V
b1010 g
b1010 .
b1010 d
b1010 u
b1010 C"
b1010 '
b1010 6"
b1010 G"
b1010 <
b1010 N
b1010 T
b1010 $"
b0 :
b0 l
b0 ?"
06
0;
b1 5
b1 o
b1 F"
b11 ?
b11 K
b11 p
b1010 c
b0 8"
b1010 7"
b1 9"
b1010 7
b1010 P
b1010 z
b1010 |
b1010 *"
b10110011 r
b101110 ="
b0 `
b0 W
b0 i
b101110 9
b101110 '"
b101110 <"
b101000 E"
b101000 1
b101000 1"
b101000 ;"
b101000000000000010010011 y
b101000000000000010010011 @
b101000000000000010010011 L
b101000000000000010010011 q
b101000000000000010010011 {
b101000000000000010010011 }
b101000000000000010010011 3"
b1001 ~
b101110 0
b101110 ,"
b101110 D"
b0 b
b0 a
b0 Z
b0 Y
b0 _
b0 [
b0 R
b0 e
b0 +
b0 X
b0 4"
b100100 )"
b100100 2
b100100 !"
b100100 #"
b100100 %"
b100100 /"
1"
#320000
0"
#340000
b10100 '
b10100 6"
b10100 G"
b10100 >"
b10100 .
b10100 d
b10100 u
b10100 C"
b10100 c
b11111111111111111111111111101011 U
b10100 V
b10100 g
b101100 /
b101100 ""
b101100 @"
b10100 <
b10100 N
b10100 T
b10100 $"
b10100 7"
b10 9"
b10100 7
b10100 P
b10100 z
b10100 |
b10100 *"
b111100 ="
b111100 9
b111100 '"
b111100 <"
b101100 E"
b101100 1
b101100 1"
b101100 ;"
b1010000000000000100010011 y
b1010000000000000100010011 @
b1010000000000000100010011 L
b1010000000000000100010011 q
b1010000000000000100010011 {
b1010000000000000100010011 }
b1010000000000000100010011 3"
b1010 ~
b111100 0
b111100 ,"
b111100 D"
b101000 )"
b101000 2
b101000 !"
b101000 #"
b101000 %"
b101000 /"
1"
#360000
0"
#380000
b1 :
b1 l
b1 ?"
b0 '
b0 6"
b0 G"
b0 >"
0(
b0 .
b0 d
b0 u
b0 C"
1&
b0 c
18
b1 h
b11111111111111111111111111110101 U
b1010 V
b1010 g
b1 =
b1 M
b1 S
b110100 /
b110100 ""
b110100 @"
b1100100 `
b0 W
b0 i
b1 b
b1 a
b1010 <
b1010 N
b1010 T
b1000 $"
1;
b1 ?
b1 K
b1 p
0>
0,
b0 Z
b0 Y
b1100100 _
b1100100 [
b1010 R
b1010 e
b1010 +
b1010 X
b1010 4"
b1 8"
b1010 *
b1010 O
b1010 v
b1010 5"
b1 7"
b1000 9"
b1000 7
b1000 P
b1000 z
b1000 |
b1000 *"
b1000010010000 r
b110100 ="
b110100 9
b110100 '"
b110100 <"
b110000 E"
b110000 1
b110000 1"
b110000 ;"
b100001000010001100011 y
b100001000010001100011 @
b100001000010001100011 L
b100001000010001100011 q
b100001000010001100011 {
b100001000010001100011 }
b100001000010001100011 3"
b1011 ~
b110100 0
b110100 ,"
b110100 D"
b101100 )"
b101100 2
b101100 !"
b101100 #"
b101100 %"
b101100 /"
1"
#400000
0"
#420000
b1 :
b1 l
b1 ?"
b11111111111111111111111111110110 '
b11111111111111111111111111110110 6"
b11111111111111111111111111110110 G"
b11110110 >"
1)
0(
b11111111111111111111111111110110 .
b11111111111111111111111111110110 d
b11111111111111111111111111110110 u
b11111111111111111111111111110110 C"
0&
b11111111111111111111111111110110 c
08
b11111111111111111111111111101011 U
b10100 V
b10100 g
b11001000 `
b1000000 /
b1000000 ""
b1000000 @"
b0 b
b0 a
b1010 Z
b1010 Y
b11001000 _
b11001000 [
b10100 <
b10100 N
b10100 T
b1100 $"
b10100 *
b10100 O
b10100 v
b10100 5"
b10 7"
b1100 9"
b1100 7
b1100 P
b1100 z
b1100 |
b1100 *"
b1 k
b1 j
b1000000 ="
b1000000 9
b1000000 '"
b1000000 <"
b111000 E"
b111000 1
b111000 1"
b111000 ;"
b1000001001011001100011 y
b1000001001011001100011 @
b1000001001011001100011 L
b1000001001011001100011 q
b1000001001011001100011 {
b1000001001011001100011 }
b1000001001011001100011 3"
b1101 ~
b1000000 0
b1000000 ,"
b1000000 D"
b110100 )"
b110100 2
b110100 !"
b110100 #"
b110100 %"
b110100 /"
1"
#440000
0"
#460000
1(
0)
b0 '
b0 6"
b0 G"
1&
b0 >"
b0 :
b0 l
b0 ?"
b0 h
b0 .
b0 d
b0 u
b0 C"
b0 c
b11111111111111111111111111111111 U
b0 V
b0 g
b0 =
b0 M
b0 S
b1000100 /
b1000100 ""
b1000100 @"
b0 `
bx b
bx a
b0 <
b0 N
b0 T
b0 $"
0;
b11 ?
b11 K
b11 p
1,
bx Z
bx Y
b0 _
b0 [
b0 R
b0 e
b0 +
b0 X
b0 4"
b0 8"
b0 *
b0 O
b0 v
b0 5"
b0 7"
b0 9"
b0 7
b0 P
b0 z
b0 |
b0 *"
b0 k
b0 j
b10110001 r
b1000000 ="
b1000000 9
b1000000 '"
b1000000 <"
b1000100 E"
b1000100 1
b1000100 1"
b1000100 ;"
b110011 y
b110011 @
b110011 L
b110011 q
b110011 {
b110011 }
b110011 3"
b10000 ~
b1000000 0
b1000000 ,"
b1000000 D"
b1000000 )"
b1000000 2
b1000000 !"
b1000000 #"
b1000000 %"
b1000000 /"
1"
#480000
0"
#500000
0(
b1010 '
b1010 6"
b1010 G"
b0 :
b0 l
b0 ?"
0&
b1010 c
18
b11111111111111111111111111110101 U
b1010 V
b1010 g
b11001000 `
x&"
b1010 >"
b1001000 /
b1001000 ""
b1001000 @"
b10 b
b10 a
b0 Z
b0 Y
b11001000 _
b11001000 [
b1010 <
b1010 N
b1010 T
x+"
b11111100 $"
b1010 .
b1010 d
b1010 u
b1010 C"
b1 h
1;
b1 ?
b1 K
b1 p
0,
b10100 R
b10100 e
b10100 +
b10100 X
b10100 4"
b10 8"
b1010 *
b1010 O
b1010 v
b1010 5"
b1 7"
b11101 9"
b11111111111111111111111111111100 7
b11111111111111111111111111111100 P
b11111111111111111111111111111100 z
b11111111111111111111111111111100 |
b11111111111111111111111111111100 *"
b100 k
b100 j
b1 =
b1 M
b1 S
b1000010010000 r
b1000000 ="
b1000000 9
b1000000 '"
b1000000 <"
b1001000 E"
b1001000 1
b1001000 1"
b1001000 ;"
b11111110000100010100111011100011 y
b11111110000100010100111011100011 @
b11111110000100010100111011100011 L
b11111110000100010100111011100011 q
b11111110000100010100111011100011 {
b11111110000100010100111011100011 }
b11111110000100010100111011100011 3"
b10001 ~
b1000000 0
b1000000 ,"
b1000000 D"
b1000100 )"
b1000100 2
b1000100 !"
b1000100 #"
b1000100 %"
b1000100 /"
1"
#520000
0"
#540000
b1 :
b1 l
b1 ?"
0&"
b1010000 /
b1010000 ""
b1010000 @"
0+"
b1000 $"
b1000 9"
b1000 7
b1000 P
b1000 z
b1000 |
b1000 *"
b101 k
b101 j
b1010000 ="
b1010000 9
b1010000 '"
b1010000 <"
b1001100 E"
b1001100 1
b1001100 1"
b1001100 ;"
b100010101010001100011 y
b100010101010001100011 @
b100010101010001100011 L
b100010101010001100011 q
b100010101010001100011 {
b100010101010001100011 }
b100010101010001100011 3"
b10010 ~
b1010000 0
b1010000 ,"
b1010000 D"
b1001000 )"
b1001000 2
b1001000 !"
b1001000 #"
b1001000 %"
b1001000 /"
1"
#560000
0"
#580000
b0 :
b0 l
b0 ?"
x&"
b1010100 /
b1010100 ""
b1010100 @"
x+"
b11110000 $"
b10001 9"
b11111111111111111111111111110000 7
b11111111111111111111111111110000 P
b11111111111111111111111111110000 z
b11111111111111111111111111110000 |
b11111111111111111111111111110000 *"
b110 k
b110 j
b1000000 ="
b1000000 9
b1000000 '"
b1000000 <"
b1010100 E"
b1010100 1
b1010100 1"
b1010100 ;"
b11111110000100010110100011100011 y
b11111110000100010110100011100011 @
b11111110000100010110100011100011 L
b11111110000100010110100011100011 q
b11111110000100010110100011100011 {
b11111110000100010110100011100011 }
b11111110000100010110100011100011 3"
b10100 ~
b1000000 0
b1000000 ,"
b1000000 D"
b1010000 )"
b1010000 2
b1010000 !"
b1010000 #"
b1010000 %"
b1010000 /"
1"
#600000
0"
#620000
b11111111111111111111111111110110 '
b11111111111111111111111111110110 6"
b11111111111111111111111111110110 G"
1)
0(
b11110110 >"
08
b0 :
b0 l
b0 ?"
b11111111111111111111111111110110 .
b11111111111111111111111111110110 d
b11111111111111111111111111110110 u
b11111111111111111111111111110110 C"
0&
b11111111111111111111111111110110 c
b11111111111111111111111111101011 U
b10100 V
b10100 g
b1011000 /
b1011000 ""
b1011000 @"
b1010 Z
b1010 Y
b10100 <
b10100 N
b10100 T
b11111100 $"
b0 b
b0 a
b11001000 _
b11001000 [
b1010 R
b1010 e
b1010 +
b1010 X
b1010 4"
b1 8"
b10100 *
b10100 O
b10100 v
b10100 5"
b10 7"
b11101 9"
b11111111111111111111111111111100 7
b11111111111111111111111111111100 P
b11111111111111111111111111111100 z
b11111111111111111111111111111100 |
b11111111111111111111111111111100 *"
b111 k
b111 j
b1010000 ="
b1010000 9
b1010000 '"
b1010000 <"
b1011000 E"
b1011000 1
b1011000 1"
b1011000 ;"
b11111110001000001111111011100011 y
b11111110001000001111111011100011 @
b11111110001000001111111011100011 L
b11111110001000001111111011100011 q
b11111110001000001111111011100011 {
b11111110001000001111111011100011 }
b11111110001000001111111011100011 3"
b10101 ~
b1010000 0
b1010000 ,"
b1010000 D"
b1010100 )"
b1010100 2
b1010100 !"
b1010100 #"
b1010100 %"
b1010100 /"
1"
#640000
0"
#660000
1(
0)
b100 '
b100 6"
b100 G"
b100 >"
b0 h
b100 .
b100 d
b100 u
b100 C"
b100 c
b11111111111111111111111111111011 U
b100 V
b100 g
0&"
b0 =
b0 M
b0 S
b1011100 /
b1011100 ""
b1011100 @"
b0 `
b100 <
b100 N
b100 T
0+"
b100 $"
0;
b11 ?
b11 K
b11 p
1>
1,
b0 Z
b0 Y
b0 _
b0 [
b0 R
b0 e
b0 +
b0 X
b0 4"
b0 8"
b0 *
b0 O
b0 v
b0 5"
b100 7"
b1 9"
b100 7
b100 P
b100 z
b100 |
b100 *"
b0 k
b0 j
b10110011 r
b1011100 ="
b1011100 9
b1011100 '"
b1011100 <"
b1011100 E"
b1011100 1
b1011100 1"
b1011100 ;"
b10000000000000010010011 y
b10000000000000010010011 @
b10000000000000010010011 L
b10000000000000010010011 q
b10000000000000010010011 {
b10000000000000010010011 }
b10000000000000010010011 3"
b10110 ~
b1011100 0
b1011100 ,"
b1011100 D"
b1011000 )"
b1011000 2
b1011000 !"
b1011000 #"
b1011000 %"
b1011000 /"
1"
#680000
0"
#700000
b1000 '
b1000 6"
b1000 G"
b1000 >"
b1000 .
b1000 d
b1000 u
b1000 C"
b1000 c
b11111111111111111111111111110111 U
b1000 V
b1000 g
b1100000 /
b1100000 ""
b1100000 @"
b1000 <
b1000 N
b1000 T
b1000 $"
b11100 *
b11100 O
b11100 v
b11100 5"
b1000 7"
b10 9"
b1000 7
b1000 P
b1000 z
b1000 |
b1000 *"
b1100100 ="
b1100100 9
b1100100 '"
b1100100 <"
b1100000 E"
b1100000 1
b1100000 1"
b1100000 ;"
b100000000000000100010011 y
b100000000000000100010011 @
b100000000000000100010011 L
b100000000000000100010011 q
b100000000000000100010011 {
b100000000000000100010011 }
b100000000000000100010011 3"
b10111 ~
b1100100 0
b1100100 ,"
b1100100 D"
b1011100 )"
b1011100 2
b1011100 !"
b1011100 #"
b1011100 %"
b1011100 /"
1"
#720000
0"
#740000
b100 >"
b110 '
b110 6"
b110 G"
b100 .
b100 d
b100 u
b100 C"
b100 c
b11111111111111111111111111111111 U
b0 V
b0 g
b110 -
b110 w
b110 B"
b1100100 /
b1100100 ""
b1100100 @"
b100 W
b100 i
bx b
bx a
b0 <
b0 N
b0 T
b0 $"
b100 4
b100 n
b100 s
b0 5
b0 o
b0 F"
b10 ?
b10 K
b10 p
bx Z
bx Y
b0 _
b0 [
b100 R
b100 e
b100 +
b100 X
b100 4"
b1 8"
b0 *
b0 O
b0 v
b0 5"
b0 7"
b1010 9"
b0 7
b0 P
b0 z
b0 |
b0 *"
b100000100011 r
b1100000 ="
b1100000 9
b1100000 '"
b1100000 <"
b1100100 E"
b1100100 1
b1100100 1"
b1100100 ;"
b1000010100000011 y
b1000010100000011 @
b1000010100000011 L
b1000010100000011 q
b1000010100000011 {
b1000010100000011 }
b1000010100000011 3"
b11000 ~
b1100000 0
b1100000 ,"
b1100000 D"
b1100000 )"
b1100000 2
b1100000 !"
b1100000 #"
b1100000 %"
b1100000 /"
1"
#760000
0"
#780000
b10000 >"
b10000 .
b10000 d
b10000 u
b10000 C"
b10000 c
b11111111111111111111111111110111 U
b1000 V
b1000 g
b1000000 `
b1101000 /
b1101000 ""
b1101000 @"
b100000000000 W
b100000000000 i
b1 b
b1 a
b0 Z
b0 Y
b1000000 _
b1000000 [
b1000 <
b1000 N
b1000 T
b1000 $"
b101 4
b101 n
b101 s
b1000 R
b1000 e
b1000 +
b1000 X
b1000 4"
b10 8"
b11100 *
b11100 O
b11100 v
b11100 5"
b1000 7"
b1101 9"
b1000 7
b1000 P
b1000 z
b1000 |
b1000 *"
b100 k
b100 j
b101000100011 r
b1101100 ="
b1101100 9
b1101100 '"
b1101100 <"
b1101000 E"
b1101000 1
b1101000 1"
b1101000 ;"
b100000010100011010000011 y
b100000010100011010000011 @
b100000010100011010000011 L
b100000010100011010000011 q
b100000010100011010000011 {
b100000010100011010000011 }
b100000010100011010000011 3"
b11001 ~
b1101100 0
b1101100 ,"
b1101100 D"
b1100100 )"
b1100100 2
b1100100 !"
b1100100 #"
b1100100 %"
b1100100 /"
1"
#800000
0"
#820000
b10100 >"
b100000110 '
b100000110 6"
b100000110 G"
b1000000000000000 W
b1000000000000000 i
b10100 .
b10100 d
b10100 u
b10100 C"
b10100 c
b11111111111111111111111111110011 U
b1100 V
b1100 g
b1100000 `
b100000110 -
b100000110 w
b100000110 B"
b1101100 /
b1101100 ""
b1101100 @"
b0 b
b0 a
b1000 Z
b1000 Y
b1100000 _
b1100000 [
b1100 <
b1100 N
b1100 T
b1100 $"
b11 4
b11 n
b11 s
b0 *
b0 O
b0 v
b0 5"
b1100 7"
b1110 9"
b1100 7
b1100 P
b1100 z
b1100 |
b1100 *"
b101 k
b101 j
b11000100011 r
b1110100 ="
b1110100 9
b1110100 '"
b1110100 <"
b1101100 E"
b1101100 1
b1101100 1"
b1101100 ;"
b110000010101011100000011 y
b110000010101011100000011 @
b110000010101011100000011 L
b110000010101011100000011 q
b110000010101011100000011 {
b110000010101011100000011 }
b110000010101011100000011 3"
b11010 ~
b1110100 0
b1110100 ,"
b1110100 D"
b1101000 )"
b1101000 2
b1101000 !"
b1101000 #"
b1101000 %"
b1101000 /"
1"
#840000
0"
#860000
x)
x(
bx >"
b11 h
x&
bx c
x8
bx .
bx d
bx u
bx C"
bx U
bx V
bx g
x&"
b11 =
b11 M
b11 S
b1110000 /
b1110000 ""
b1110000 @"
bx `
bx ^
bx ]
bx \
b0 W
b0 i
x+"
bx <
bx N
bx T
bx $"
b0 4
b0 n
b0 s
b0 ?
b0 K
b0 p
0>
0,
bx b
bx a
bx Z
bx Y
bx _
bx [
bx R
bx e
bx +
bx X
bx 4"
bx 8"
bx *
bx O
bx v
bx 5"
bx 7"
bx 9"
bx 7
bx P
bx z
bx |
bx *"
bx k
bx j
b0 r
bx ="
bx 9
bx '"
bx <"
b1110000 E"
b1110000 1
b1110000 1"
b1110000 ;"
bx y
bx @
bx L
bx q
bx {
bx }
bx 3"
b11011 ~
bx 0
bx ,"
bx D"
b1101100 )"
b1101100 2
b1101100 !"
b1101100 #"
b1101100 %"
b1101100 /"
1"
#880000
0"
#900000
b1110100 /
b1110100 ""
b1110100 @"
b1110100 E"
b1110100 1
b1110100 1"
b1110100 ;"
b11100 ~
b1110000 )"
b1110000 2
b1110000 !"
b1110000 #"
b1110000 %"
b1110000 /"
1"
#920000
0"
