verilog/riscv32_single_cycle/gtkwaveforms/riscv32iSingleCycle.vcd
$date
	Sun Nov  5 14:58:08 2023
$end
$version
	Icarus Verilog
$end
$timescale
	1ps
$end
$scope module riscv32isinglecycle_tb $end
$var parameter 32 ! p $end
$var reg 1 " clk $end
$var reg 1 # rst $end
$scope module DUT $end
$var wire 8 $ CONST4 [7:0] $end
$var wire 32 % CONSTZ32 [31:0] $end
$var wire 8 & CONSTZ8 [7:0] $end
$var wire 1 " clk $end
$var wire 1 ' load $end
$var wire 1 # rst $end
$var wire 1 ( zf $end
$var wire 32 ) write_data_reg_file [31:0] $end
$var wire 1 * vf $end
$var wire 1 + sf $end
$var wire 32 , rs2 [31:0] $end
$var wire 32 - rs1 [31:0] $end
$var wire 1 . reg_write $end
$var wire 32 / read_data_out [31:0] $end
$var wire 32 0 r [31:0] $end
$var wire 8 1 pc_target_addr [7:0] $end
$var wire 32 2 pc_plus_immediate [31:0] $end
$var wire 8 3 pc_next [7:0] $end
$var wire 8 4 pc_current_address [7:0] $end
$var wire 1 5 mem_write $end
$var wire 1 6 mem_read $end
$var wire 2 7 mem_out_sel [1:0] $end
$var wire 1 8 jump $end
$var wire 32 9 immediate [31:0] $end
$var wire 1 : cf $end
$var wire 8 ; branch_target [7:0] $end
$var wire 2 < branch_sel [1:0] $end
$var wire 1 = branch $end
$var wire 32 > b [31:0] $end
$var wire 4 ? alufn [3:0] $end
$var wire 1 @ alu_src $end
$var wire 2 A alu_op [1:0] $end
$var wire 32 B Instruction [31:0] $end
$var parameter 32 C FUNCT3 $end
$var parameter 32 D FUNCT7 $end
$var parameter 32 E MEM_ADDR $end
$var parameter 32 F N $end
$var parameter 32 G OPCODE $end
$var parameter 32 H RD $end
$var parameter 32 I REG_ADDR $end
$var parameter 32 J RS1 $end
$var parameter 32 K RS2 $end
$var parameter 32 L SHAMT $end
$scope module U_10 $end
$var wire 8 M A_in [7:0] $end
$var wire 1 N gnd $end
$var wire 8 O sum_out [7:0] $end
$var wire 8 P B_in [7:0] $end
$var parameter 32 Q N $end
$upscope $end
$scope module U_12 $end
$var wire 32 R A_in [31:0] $end
$var wire 1 S gnd $end
$var wire 32 T sum_out [31:0] $end
$var wire 32 U B_in [31:0] $end
$var parameter 32 V N $end
$upscope $end
$scope module U_13 $end
$var wire 32 W sel_out [31:0] $end
$var wire 1 @ sel_in $end
$var wire 32 X lo_in [31:0] $end
$var wire 32 Y hi_in [31:0] $end
$var parameter 32 Z N $end
$upscope $end
$scope module U_15 $end
$var wire 32 [ C_10 [31:0] $end
$var wire 32 \ D_11 [31:0] $end
$var wire 32 ] sel_out [31:0] $end
$var wire 2 ^ sel [1:0] $end
$var wire 32 _ B_01 [31:0] $end
$var wire 32 ` A_00 [31:0] $end
$var parameter 32 a N $end
$upscope $end
$scope module U_16 $end
$var wire 8 b B_01 [7:0] $end
$var wire 8 c C_10 [7:0] $end
$var wire 8 d D_11 [7:0] $end
$var wire 8 e sel_out [7:0] $end
$var wire 2 f sel [1:0] $end
$var wire 8 g A_00 [7:0] $end
$var parameter 32 h N $end
$upscope $end
$scope module U_9 $end
$var wire 8 i A_in [7:0] $end
$var wire 1 j gnd $end
$var wire 8 k sum_out [7:0] $end
$var wire 8 l B_in [7:0] $end
$var parameter 32 m N $end
$upscope $end
$scope module aluCu_inst $end
$var wire 2 n alu_op [1:0] $end
$var wire 32 o Instruction [31:0] $end
$var reg 4 p alufn [3:0] $end
$scope begin COMBINATIONAL_OUTPUT $end
$upscope $end
$upscope $end
$scope module alu_inst $end
$var wire 5 q Instruction [24:20] $end
$var wire 32 r a [31:0] $end
$var wire 4 s alufn [3:0] $end
$var wire 32 t b [31:0] $end
$var wire 32 u op_b [31:0] $end
$var wire 5 v shamt [4:0] $end
$var wire 1 * vf $end
$var wire 1 ( zf $end
$var wire 32 w sh [31:0] $end
$var wire 1 + sf $end
$var wire 32 x rs1 [31:0] $end
$var wire 1 : cf $end
$var wire 32 y add [31:0] $end
$var reg 32 z r [31:0] $end
$scope module shifter0 $end
$var wire 32 { a [31:0] $end
$var wire 32 | gnd [31:0] $end
$var wire 5 } shamt [4:0] $end
$var wire 2 ~ type [1:0] $end
$var reg 32 !" r [31:0] $end
$upscope $end
$upscope $end
$scope module branchCu_inst $end
$var wire 3 "" Instruction [14:12] $end
$var wire 1 : cf $end
$var wire 3 #" func3 [2:0] $end
$var wire 1 + sf $end
$var wire 1 * vf $end
$var wire 1 ( zf $end
$var wire 1 8 jump $end
$var wire 2 $" branch_sel [1:0] $end
$var wire 1 = branch $end
$upscope $end
$scope module cu_inst $end
$var wire 7 %" Instruction [6:0] $end
$var wire 1 . reg_write $end
$var wire 1 5 mem_write $end
$var wire 1 6 mem_read $end
$var wire 2 &" mem_out_sel [1:0] $end
$var wire 1 8 jump $end
$var wire 1 = branch $end
$var wire 1 @ alu_src $end
$var wire 2 '" alu_op [1:0] $end
$var reg 10 (" flags [9:0] $end
$scope begin COMBINATIONAL_OUTPUT $end
$upscope $end
$upscope $end
$scope module dataMem_inst $end
$var wire 1 " clk $end
$var wire 1 6 mem_read $end
$var wire 1 5 mem_write $end
$var wire 32 )" r [31:0] $end
$var wire 1 # rst $end
$var wire 32 *" rs2 [31:0] $end
$var wire 32 +" read_data_out [31:0] $end
$scope begin MEM_WRITE_SEQ $end
$upscope $end
$upscope $end
$scope module immGen_inst $end
$var wire 32 ," IR [31:0] $end
$var wire 32 -" immediate [31:0] $end
$var wire 32 ." Instruction [31:0] $end
$var reg 32 /" Imm [31:0] $end
$upscope $end
$scope module instMem_inst $end
$var wire 32 0" Instruction [31:0] $end
$var wire 8 1" pc_current_address [7:0] $end
$upscope $end
$scope module pc_inst $end
$var wire 1 " clk $end
$var wire 1 ' load $end
$var wire 8 2" pc_current_address [7:0] $end
$var wire 8 3" pc_target_addr [7:0] $end
$var wire 1 # rst $end
$var reg 8 4" pc [7:0] $end
$upscope $end
$scope module regFile_inst $end
$var wire 32 5" Instruction [31:0] $end
$var wire 1 " clk $end
$var wire 1 . reg_write $end
$var wire 32 6" rs1 [31:0] $end
$var wire 32 7" rs2 [31:0] $end
$var wire 1 # rst $end
$var wire 32 8" write_data_reg_file [31:0] $end
$var wire 5 9" rs2_in [4:0] $end
$var wire 5 :" rs1_in [4:0] $end
$var wire 5 ;" rd_in [4:0] $end
$var integer 32 <" i [31:0] $end
$scope begin RESET $end
$upscope $end
$upscope $end
$upscope $end
$upscope $end
$enddefinitions $end
$comment Show the parameter values. $end
$dumpall
b1000 m
b1000 h
b100000 a
b100000 Z
b100000 V
b1000 Q
b101 L
b101 K
b101 J
b101 I
b101 H
b111 G
b100000 F
b1000 E
b111 D
b11 C
b10100 !
$end
#0
$dumpvars
b100000 <"
b110 ;"
b0 :"
b10011 9"
b10010011 8"
b0 7"
b0 6"
b1001001100000000001100010011 5"
b0 4"
b100 3"
b0 2"
b0 1"
b1001001100000000001100010011 0"
b10010011 /"
b1001001100000000001100010011 ."
b10010011 -"
b1001001100000000001100010011 ,"
bx +"
b0 *"
b10010011 )"
b111011 ("
b11 '"
b1 &"
b10011 %"
b0 $"
b0 #"
b0 ""
b0 !"
b0 ~
b10011 }
b0 |
b0 {
b10010011 z
b10010011 y
b0 x
b0 w
b10011 v
b11111111111111111111111101101100 u
b10010011 t
b0 s
b0 r
b10011 q
b0 p
b1001001100000000001100010011 o
b11 n
b0 l
b100 k
0j
b100 i
b100 g
b0 f
b100 e
b0 d
b10010011 c
b10010011 b
bx `
b10010011 _
b1 ^
b10010011 ]
b0 \
b10010011 [
b10010011 Y
b0 X
b10010011 W
b10010011 U
b10010011 T
0S
b0 R
b0 P
b10010011 O
0N
b10010011 M
b1001001100000000001100010011 B
b11 A
1@
b0 ?
b10010011 >
0=
b0 <
b10010011 ;
0:
b10010011 9
08
b1 7
06
05
b0 4
b100 3
b10010011 2
b100 1
b10010011 0
bx /
1.
b0 -
b0 ,
0+
1*
b10010011 )
0(
1'
b0 &
b0 %
b100 $
1#
0"
$end
#20000
b100000 <"
1"
#40000
0"
#60000
b100000 <"
1"
#80000
0"
0#
#100000
b1 )
b1 ]
b1 8"
b1 y
b11111111111111111111111111111110 u
b1 }
b1 0
b1 _
b1 z
b1 )"
b1000 1
b1000 e
b1000 3"
b1 >
b1 W
b1 t
b1 M
b1 9"
b111 ;"
b1 9
b1 U
b1 Y
b1 -"
b1 /"
b1 v
b1 q
b101 c
b1000 3
b1000 g
b1000 k
b101 ;
b101 O
b101 b
b100000000001110010011 ,"
b100000000001110010011 B
b100000000001110010011 o
b100000000001110010011 ."
b100000000001110010011 0"
b100000000001110010011 5"
b1 1"
b101 2
b101 T
b101 [
b100 R
b100 4
b100 P
b100 l
b100 2"
b100 4"
1"
#120000
0"
#140000
b1101 )
b1101 ]
b1101 8"
b1101 y
b11111111111111111111111111110010 u
b1101 }
b1101 0
b1101 _
b1101 z
b1101 )"
b1100 1
b1100 e
b1100 3"
b1101 >
b1101 W
b1101 t
b1101 M
b1101 9"
b11100 ;"
b1101 9
b1101 U
b1101 Y
b1101 -"
b1101 /"
b1101 v
b1101 q
b10101 c
b1100 3
b1100 g
b1100 k
b10101 ;
b10101 O
b10101 b
b110100000000111000010011 ,"
b110100000000111000010011 B
b110100000000111000010011 o
b110100000000111000010011 ."
b110100000000111000010011 0"
b110100000000111000010011 5"
b10 1"
b10101 2
b10101 T
b10101 [
b1000 R
b1000 4
b1000 P
b1000 l
b1000 2"
b1000 4"
1"
#160000
0"
#180000
b11111111111111111111111111110011 )
b11111111111111111111111111110011 ]
b11111111111111111111111111110011 8"
1+
b11111111111111111111111111110011 y
b1100 u
b10011 }
b11111111111111111111111111110011 0
b11111111111111111111111111110011 _
b11111111111111111111111111110011 z
b11111111111111111111111111110011 )"
b10000 1
b10000 e
b10000 3"
b11111111111111111111111111110011 >
b11111111111111111111111111110011 W
b11111111111111111111111111110011 t
b11110011 M
b10011 9"
b11101 ;"
b11111111111111111111111111110011 9
b11111111111111111111111111110011 U
b11111111111111111111111111110011 Y
b11111111111111111111111111110011 -"
b11111111111111111111111111110011 /"
b10011 v
b10011 q
b11111111 c
b10000 3
b10000 g
b10000 k
b11111111 ;
b11111111 O
b11111111 b
b11111111001100000000111010010011 ,"
b11111111001100000000111010010011 B
b11111111001100000000111010010011 o
b11111111001100000000111010010011 ."
b11111111001100000000111010010011 0"
b11111111001100000000111010010011 5"
b11 1"
b11111111111111111111111111111111 2
b11111111111111111111111111111111 T
b11111111111111111111111111111111 [
b1100 R
b1100 4
b1100 P
b1100 l
b1100 2"
b1100 4"
1"
#200000
0"
#220000
b11111111111111111111111111101100 )
b11111111111111111111111111101100 ]
b11111111111111111111111111101100 8"
b11111111111111111111111111101100 y
b10011 u
b1100 }
b11111111111111111111111111101100 0
b11111111111111111111111111101100 _
b11111111111111111111111111101100 z
b11111111111111111111111111101100 )"
b10100 1
b10100 e
b10100 3"
b11111111111111111111111111101100 >
b11111111111111111111111111101100 W
b11111111111111111111111111101100 t
b11101100 M
b1100 9"
b11110 ;"
b11111111111111111111111111101100 9
b11111111111111111111111111101100 U
b11111111111111111111111111101100 Y
b11111111111111111111111111101100 -"
b11111111111111111111111111101100 /"
b1100 v
b1100 q
b11111100 c
b10100 3
b10100 g
b10100 k
b11111100 ;
b11111100 O
b11111100 b
0N
b11111110110000000000111100010011 ,"
b11111110110000000000111100010011 B
b11111110110000000000111100010011 o
b11111110110000000000111100010011 ."
b11111110110000000000111100010011 0"
b11111110110000000000111100010011 5"
b100 1"
b11111111111111111111111111111100 2
b11111111111111111111111111111100 T
b11111111111111111111111111111100 [
0S
b10000 R
b10000 4
b10000 P
b10000 l
b10000 2"
b10000 4"
1"
#240000
0"
#260000
0+
b11010 )
b11010 ]
b11010 8"
b1110 y
b11111111111111111111111111111110 u
b1 }
0@
b11000 1
b11000 e
b11000 3"
b11010 w
b11010 !"
b1 >
b1 W
b1 t
b111 M
b111001 ("
b11010 0
b11010 _
b11010 z
b11010 )"
b1101 r
b1101 {
b1101 -
b1101 x
b1101 6"
b11100 :"
b1 ,
b1 X
b1 *"
b1 7"
b111 9"
b11100 ;"
b111 9
b111 U
b111 Y
b111 -"
b111 /"
b110011 %"
b1 #"
b1 ""
b111 v
b111 q
b1000 ?
b1000 p
b1000 s
b11011 c
b11000 3
b11000 g
b11000 k
b11011 ;
b11011 O
b11011 b
0N
b11111100001111000110011 ,"
b11111100001111000110011 B
b11111100001111000110011 o
b11111100001111000110011 ."
b11111100001111000110011 0"
b11111100001111000110011 5"
b101 1"
b11011 2
b11011 T
b11011 [
0S
b10100 R
b10100 4
b10100 P
b10100 l
b10100 2"
b10100 4"
1"
#280000
0"
#300000
b1101 )
b1101 ]
b1101 8"
b11100 1
b11100 e
b11100 3"
b10 ~
b11011 y
b101 #"
b101 ""
b1010 ?
b1010 p
b1010 s
b11111 c
b1101 w
b1101 !"
b1101 0
b1101 _
b1101 z
b1101 )"
b11100 3
b11100 g
b11100 k
b11111 ;
b11111 O
b11111 b
b11111100101111000110011 ,"
b11111100101111000110011 B
b11111100101111000110011 o
b11111100101111000110011 ."
b11111100101111000110011 0"
b11111100101111000110011 5"
b110 1"
b11111 2
b11111 T
b11111 [
b11010 r
b11010 {
b11010 -
b11010 x
b11010 6"
b11000 R
b11000 4
b11000 P
b11000 l
b11000 2"
b11000 4"
1"
#320000
0"
#340000
0*
1+
b11111111111111111111111111111001 )
b11111111111111111111111111111001 ]
b11111111111111111111111111111001 8"
1:
b100000 1
b100000 e
b100000 3"
b1 ~
b11111111111111111111111111110010 y
b11101 :"
b11101 ;"
b10000000111 9
b10000000111 U
b10000000111 Y
b10000000111 -"
b10000000111 /"
b1001 ?
b1001 p
b1001 s
b100011 c
b11111111111111111111111111111001 w
b11111111111111111111111111111001 !"
b11111111111111111111111111111001 0
b11111111111111111111111111111001 _
b11111111111111111111111111111001 z
b11111111111111111111111111111001 )"
b100000 3
b100000 g
b100000 k
b100011 ;
b100011 O
b100011 b
b1000000011111101101111010110011 ,"
b1000000011111101101111010110011 B
b1000000011111101101111010110011 o
b1000000011111101101111010110011 ."
b1000000011111101101111010110011 0"
b1000000011111101101111010110011 5"
b111 1"
b10000100011 2
b10000100011 T
b10000100011 [
b11111111111111111111111111110011 r
b11111111111111111111111111110011 {
b11111111111111111111111111110011 -
b11111111111111111111111111110011 x
b11111111111111111111111111110011 6"
b11100 R
b11100 4
b11100 P
b11100 l
b11100 2"
b11100 4"
1"
#360000
0"
#380000
1*
0:
b11111111111111111111111111111010 )
b11111111111111111111111111111010 ]
b11111111111111111111111111111010 8"
b100100 1
b100100 e
b100100 3"
b0 ~
b11111111111111111111111111111010 y
b111 9
b111 U
b111 Y
b111 -"
b111 /"
b0 #"
b0 ""
b0 ?
b0 p
b0 s
b100111 c
b11111111111111111111111111110010 w
b11111111111111111111111111110010 !"
b11111111111111111111111111111010 0
b11111111111111111111111111111010 _
b11111111111111111111111111111010 z
b11111111111111111111111111111010 )"
b100100 3
b100100 g
b100100 k
b100111 ;
b100111 O
b100111 b
b11111101000111010110011 ,"
b11111101000111010110011 B
b11111101000111010110011 o
b11111101000111010110011 ."
b11111101000111010110011 0"
b11111101000111010110011 5"
b1000 1"
b100111 2
b100111 T
b100111 [
b11111111111111111111111111111001 r
b11111111111111111111111111111001 {
b11111111111111111111111111111001 -
b11111111111111111111111111111001 x
b11111111111111111111111111111001 6"
b100000 R
b100000 4
b100000 P
b100000 l
b100000 2"
b100000 4"
1"
#400000
0"
#420000
0*
b10011 )
b10011 ]
b10011 8"
0+
0:
b101 u
b11010 }
b101000 1
b101000 e
b101000 3"
b11111111111111111111111111111010 >
b11111111111111111111111111111010 W
b11111111111111111111111111111010 t
b11101 M
b1 ~
b10011 y
b11100 :"
b11111111111111111111111111111010 ,
b11111111111111111111111111111010 X
b11111111111111111111111111111010 *"
b11111111111111111111111111111010 7"
b11101 9"
b10000011101 9
b10000011101 U
b10000011101 Y
b10000011101 -"
b10000011101 /"
b11101 v
b11101 q
b1 ?
b1 p
b1 s
b1000001 c
b0 w
b0 !"
b10011 0
b10011 _
b10011 z
b10011 )"
b101000 3
b101000 g
b101000 k
b1000001 ;
b1000001 O
b1000001 b
b1000001110111100000111010110011 ,"
b1000001110111100000111010110011 B
b1000001110111100000111010110011 o
b1000001110111100000111010110011 ."
b1000001110111100000111010110011 0"
b1000001110111100000111010110011 5"
b1001 1"
b10001000001 2
b10001000001 T
b10001000001 [
b1101 r
b1101 {
b1101 -
b1101 x
b1101 6"
b100100 R
b100100 4
b100100 P
b100100 l
b100100 2"
b100100 4"
1"
#440000
0"
#460000
1*
b10011111 )
b10011111 ]
b10011111 8"
b10100000 y
b101100 1
b101100 e
b101100 3"
b100100110000000000000 w
b100100110000000000000 !"
b11100 M
b0 ~
b11111111111111111111111111110010 u
b1101 }
b10011111 0
b10011111 _
b10011111 z
b10011111 )"
b10010011 r
b10010011 {
b10010011 -
b10010011 x
b10010011 6"
b110 :"
b11100 9"
b11100 9
b11100 U
b11100 Y
b11100 -"
b11100 /"
b110 #"
b110 ""
b11100 v
b11100 q
b100 ?
b100 p
b100 s
b1000100 c
b1101 >
b1101 W
b1101 t
b101100 3
b101100 g
b101100 k
b1000100 ;
b1000100 O
b1000100 b
b1110000110110111010110011 ,"
b1110000110110111010110011 B
b1110000110110111010110011 o
b1110000110110111010110011 ."
b1110000110110111010110011 0"
b1110000110110111010110011 5"
b1010 1"
b1000100 2
b1000100 T
b1000100 [
b1101 ,
b1101 X
b1101 *"
b1101 7"
b101000 R
b101000 4
b101000 P
b101000 l
b101000 2"
b101000 4"
1"
#480000
0"
#500000
1+
0*
b10011110 )
b10011110 ]
b10011110 8"
0(
b11111111111111111111111101111010 y
0:
b11111111111111111111111101101100 u
b10011 }
b110000 1
b110000 e
b110000 3"
b0 w
b0 !"
b10010011 >
b10010011 W
b10010011 t
b110 M
b10011110 0
b10011110 _
b10011110 z
b10011110 )"
b11 ~
b1101 r
b1101 {
b1101 -
b1101 x
b1101 6"
b11100 :"
b10010011 ,
b10010011 X
b10010011 *"
b10010011 7"
b110 9"
b110 9
b110 U
b110 Y
b110 -"
b110 /"
b100 #"
b100 ""
b110 v
b110 q
b111 ?
b111 p
b111 s
b110010 c
b110000 3
b110000 g
b110000 k
b110010 ;
b110010 O
b110010 b
b11011100100111010110011 ,"
b11011100100111010110011 B
b11011100100111010110011 o
b11011100100111010110011 ."
b11011100100111010110011 0"
b11011100100111010110011 5"
b1011 1"
b110010 2
b110010 T
b110010 [
b101100 R
b101100 4
b101100 P
b101100 l
b101100 2"
b101100 4"
1"
#520000
0"
#540000
b1 )
b1 ]
b1 8"
b11111111111111111111111101101110 y
b110100 1
b110100 e
b110100 3"
b1 0
b1 _
b1 z
b1 )"
b1 ~
b1 r
b1 {
b1 -
b1 x
b1 6"
b111 :"
b111 #"
b111 ""
b101 ?
b101 p
b101 s
b110110 c
b110100 3
b110100 g
b110100 k
b110110 ;
b110110 O
b110110 b
b11000111111111010110011 ,"
b11000111111111010110011 B
b11000111111111010110011 o
b11000111111111010110011 ."
b11000111111111010110011 0"
b11000111111111010110011 5"
b1100 1"
b110110 2
b110110 T
b110110 [
b110000 R
b110000 4
b110000 P
b110000 l
b110000 2"
b110000 4"
1"
#560000
0"
#580000
b11111111111111111111111111110100 y
b11111111111111111111111111110010 u
b1101 }
b111000 1
b111000 e
b111000 3"
b1101 >
b1101 W
b1101 t
b11100 M
b1 0
b1 _
b1 z
b1 )"
b1101 ,
b1101 X
b1101 *"
b1101 7"
b11100 9"
b11100 9
b11100 U
b11100 Y
b11100 -"
b11100 /"
b10 #"
b10 ""
b11100 v
b11100 q
b1101 ?
b1101 p
b1101 s
b1010000 c
b111000 3
b111000 g
b111000 k
b1010000 ;
b1010000 O
b1010000 b
b1110000111010111010110011 ,"
b1110000111010111010110011 B
b1110000111010111010110011 o
b1110000111010111010110011 ."
b1110000111010111010110011 0"
b1110000111010111010110011 5"
b1101 1"
b1010000 2
b1010000 T
b1010000 [
b110100 R
b110100 4
b110100 P
b110100 l
b110100 2"
b110100 4"
1"
#600000
0"
#620000
b0 )
b0 ]
b0 8"
b11111111111111111111111111101011 y
1:
b11111111111111111111111111111110 u
b1 }
b111100 1
b111100 e
b111100 3"
b1 >
b1 W
b1 t
b111 M
b0 0
b0 _
b0 z
b0 )"
b11 ~
b11111111111111111111111111101100 r
b11111111111111111111111111101100 {
b11111111111111111111111111101100 -
b11111111111111111111111111101100 x
b11111111111111111111111111101100 6"
b11110 :"
b1 ,
b1 X
b1 *"
b1 7"
b111 9"
b111 9
b111 U
b111 Y
b111 -"
b111 /"
b11 #"
b11 ""
b111 v
b111 q
b1111 ?
b1111 p
b1111 s
b111111 c
b111100 3
b111100 g
b111100 k
b111111 ;
b111111 O
b111111 b
b11111110011111010110011 ,"
b11111110011111010110011 B
b11111110011111010110011 o
b11111110011111010110011 ."
b11111110011111010110011 0"
b11111110011111010110011 5"
b1110 1"
b111111 2
b111111 T
b111111 [
b111000 R
b111000 4
b111000 P
b111000 l
b111000 2"
b111000 4"
1"
#640000
0"
#660000
x+
x*
bx )
bx ]
bx 8"
x(
bx y
x:
bx u
bx }
xN
b0 7
b0 ^
b0 &"
b0 A
b0 n
b0 '"
0.
b1000000 1
b1000000 e
b1000000 3"
bx >
bx W
bx t
xS
bx M
b0 ("
bx 0
bx _
bx z
bx )"
bx r
bx {
bx -
bx x
bx 6"
bx :"
bx ,
bx X
bx *"
bx 7"
bx 9"
bx ;"
bx 9
bx U
bx Y
bx -"
bx /"
bx %"
bx #"
bx ""
bx v
bx q
b11 ?
b11 p
b11 s
bx c
b1000000 3
b1000000 g
b1000000 k
bx ;
bx O
bx b
bx ,"
bx B
bx o
bx ."
bx 0"
bx 5"
b1111 1"
bx 2
bx T
bx [
b111100 R
b111100 4
b111100 P
b111100 l
b111100 2"
b111100 4"
1"
#680000
0"
#700000
b1000100 1
b1000100 e
b1000100 3"
b1000100 3
b1000100 g
b1000100 k
b10000 1"
b1000000 R
b1000000 4
b1000000 P
b1000000 l
b1000000 2"
b1000000 4"
1"
#720000
0"
#740000
b1001000 1
b1001000 e
b1001000 3"
b1001000 3
b1001000 g
b1001000 k
b10001 1"
b1000100 R
b1000100 4
b1000100 P
b1000100 l
b1000100 2"
b1000100 4"
1"
#760000
0"
#780000
b1001100 1
b1001100 e
b1001100 3"
b1001100 3
b1001100 g
b1001100 k
b10010 1"
b1001000 R
b1001000 4
b1001000 P
b1001000 l
b1001000 2"
b1001000 4"
1"
#800000
0"
#820000
b1010000 1
b1010000 e
b1010000 3"
b1010000 3
b1010000 g
b1010000 k
b10011 1"
b1001100 R
b1001100 4
b1001100 P
b1001100 l
b1001100 2"
b1001100 4"
1"
#840000
0"
#860000
b1010100 1
b1010100 e
b1010100 3"
b1010100 3
b1010100 g
b1010100 k
b10100 1"
b1010000 R
b1010000 4
b1010000 P
b1010000 l
b1010000 2"
b1010000 4"
1"
#880000
0"
#900000
b1011000 1
b1011000 e
b1011000 3"
b1011000 3
b1011000 g
b1011000 k
b10101 1"
b1010100 R
b1010100 4
b1010100 P
b1010100 l
b1010100 2"
b1010100 4"
1"
#920000
0"
#940000
b1011100 1
b1011100 e
b1011100 3"
b1011100 3
b1011100 g
b1011100 k
b10110 1"
b1011000 R
b1011000 4
b1011000 P
b1011000 l
b1011000 2"
b1011000 4"
1"
#960000
0"
#980000
b1100000 1
b1100000 e
b1100000 3"
b1100000 3
b1100000 g
b1100000 k
b10111 1"
b1011100 R
b1011100 4
b1011100 P
b1011100 l
b1011100 2"
b1011100 4"
1"
#1000000
0"
#1020000
b1100100 1
b1100100 e
b1100100 3"
b1100100 3
b1100100 g
b1100100 k
b11000 1"
b1100000 R
b1100000 4
b1100000 P
b1100000 l
b1100000 2"
b1100000 4"
1"
#1040000
0"
#1060000
b1101000 1
b1101000 e
b1101000 3"
b1101000 3
b1101000 g
b1101000 k
b11001 1"
b1100100 R
b1100100 4
b1100100 P
b1100100 l
b1100100 2"
b1100100 4"
1"
#1080000
0"
#1100000
b1101100 1
b1101100 e
b1101100 3"
b1101100 3
b1101100 g
b1101100 k
b11010 1"
b1101000 R
b1101000 4
b1101000 P
b1101000 l
b1101000 2"
b1101000 4"
1"
#1120000
0"
#1140000
b1110000 1
b1110000 e
b1110000 3"
b1110000 3
b1110000 g
b1110000 k
b11011 1"
b1101100 R
b1101100 4
b1101100 P
b1101100 l
b1101100 2"
b1101100 4"
1"
#1160000
0"
#1180000
b1110100 1
b1110100 e
b1110100 3"
b1110100 3
b1110100 g
b1110100 k
b11100 1"
b1110000 R
b1110000 4
b1110000 P
b1110000 l
b1110000 2"
b1110000 4"
1"
#1200000
0"
#1220000
b1111000 1
b1111000 e
b1111000 3"
b1111000 3
b1111000 g
b1111000 k
b11101 1"
b1110100 R
b1110100 4
b1110100 P
b1110100 l
b1110100 2"
b1110100 4"
1"
#1240000
0"
#1260000
b1111100 1
b1111100 e
b1111100 3"
b1111100 3
b1111100 g
b1111100 k
b11110 1"
b1111000 R
b1111000 4
b1111000 P
b1111000 l
b1111000 2"
b1111000 4"
1"
#1280000
0"
#1300000
b10000000 1
b10000000 e
b10000000 3"
b10000000 3
b10000000 g
b10000000 k
b11111 1"
b1111100 R
b1111100 4
b1111100 P
b1111100 l
b1111100 2"
b1111100 4"
1"
#1320000
0"
#1340000
b10000100 1
b10000100 e
b10000100 3"
b10000100 3
b10000100 g
b10000100 k
b100000 1"
b10000000 R
b10000000 4
b10000000 P
b10000000 l
b10000000 2"
b10000000 4"
1"
#1360000
0"
#1380000
b10001000 1
b10001000 e
b10001000 3"
b10001000 3
b10001000 g
b10001000 k
b100001 1"
b10000100 R
b10000100 4
b10000100 P
b10000100 l
b10000100 2"
b10000100 4"
1"
#1400000
0"
#1420000
b10001100 1
b10001100 e
b10001100 3"
b10001100 3
b10001100 g
b10001100 k
b100010 1"
b10001000 R
b10001000 4
b10001000 P
b10001000 l
b10001000 2"
b10001000 4"
1"
#1440000
0"
#1460000
b10010000 1
b10010000 e
b10010000 3"
b10010000 3
b10010000 g
b10010000 k
b100011 1"
b10001100 R
b10001100 4
b10001100 P
b10001100 l
b10001100 2"
b10001100 4"
1"
#1480000
0"
#1500000
b10010100 1
b10010100 e
b10010100 3"
b10010100 3
b10010100 g
b10010100 k
b100100 1"
b10010000 R
b10010000 4
b10010000 P
b10010000 l
b10010000 2"
b10010000 4"
1"
#1520000
0"
#1540000
b10011000 1
b10011000 e
b10011000 3"
b10011000 3
b10011000 g
b10011000 k
b100101 1"
b10010100 R
b10010100 4
b10010100 P
b10010100 l
b10010100 2"
b10010100 4"
1"
#1560000
0"
#1580000
b10011100 1
b10011100 e
b10011100 3"
b10011100 3
b10011100 g
b10011100 k
b100110 1"
b10011000 R
b10011000 4
b10011000 P
b10011000 l
b10011000 2"
b10011000 4"
1"
#1600000
0"
#1620000
b10100000 1
b10100000 e
b10100000 3"
b10100000 3
b10100000 g
b10100000 k
b100111 1"
b10011100 R
b10011100 4
b10011100 P
b10011100 l
b10011100 2"
b10011100 4"
1"
#1640000
0"
#1660000
b10100100 1
b10100100 e
b10100100 3"
b10100100 3
b10100100 g
b10100100 k
b101000 1"
b10100000 R
b10100000 4
b10100000 P
b10100000 l
b10100000 2"
b10100000 4"
1"
#1680000
0"
#1700000
b10101000 1
b10101000 e
b10101000 3"
b10101000 3
b10101000 g
b10101000 k
b101001 1"
b10100100 R
b10100100 4
b10100100 P
b10100100 l
b10100100 2"
b10100100 4"
1"
#1720000
0"
#1740000
b10101100 1
b10101100 e
b10101100 3"
b10101100 3
b10101100 g
b10101100 k
b101010 1"
b10101000 R
b10101000 4
b10101000 P
b10101000 l
b10101000 2"
b10101000 4"
1"
#1760000
0"
#1780000
b10110000 1
b10110000 e
b10110000 3"
b10110000 3
b10110000 g
b10110000 k
b101011 1"
b10101100 R
b10101100 4
b10101100 P
b10101100 l
b10101100 2"
b10101100 4"
1"
#1800000
0"
#1820000
b10110100 1
b10110100 e
b10110100 3"
b10110100 3
b10110100 g
b10110100 k
b101100 1"
b10110000 R
b10110000 4
b10110000 P
b10110000 l
b10110000 2"
b10110000 4"
1"
#1840000
0"
#1860000
b10111000 1
b10111000 e
b10111000 3"
b10111000 3
b10111000 g
b10111000 k
b101101 1"
b10110100 R
b10110100 4
b10110100 P
b10110100 l
b10110100 2"
b10110100 4"
1"
#1880000
0"
#1900000
b10111100 1
b10111100 e
b10111100 3"
b10111100 3
b10111100 g
b10111100 k
b101110 1"
b10111000 R
b10111000 4
b10111000 P
b10111000 l
b10111000 2"
b10111000 4"
1"
#1920000
0"
#1940000
b11000000 1
b11000000 e
b11000000 3"
b11000000 3
b11000000 g
b11000000 k
b101111 1"
b10111100 R
b10111100 4
b10111100 P
b10111100 l
b10111100 2"
b10111100 4"
1"
#1960000
0"
#1980000
b11000100 1
b11000100 e
b11000100 3"
b11000100 3
b11000100 g
b11000100 k
b110000 1"
b11000000 R
b11000000 4
b11000000 P
b11000000 l
b11000000 2"
b11000000 4"
1"
#2000000
0"
#2020000
b11001000 1
b11001000 e
b11001000 3"
b11001000 3
b11001000 g
b11001000 k
b110001 1"
b11000100 R
b11000100 4
b11000100 P
b11000100 l
b11000100 2"
b11000100 4"
1"
#2040000
0"
#2060000
b11001100 1
b11001100 e
b11001100 3"
b11001100 3
b11001100 g
b11001100 k
b110010 1"
b11001000 R
b11001000 4
b11001000 P
b11001000 l
b11001000 2"
b11001000 4"
1"
#2080000
0"
#2100000
b11010000 1
b11010000 e
b11010000 3"
b11010000 3
b11010000 g
b11010000 k
b110011 1"
b11001100 R
b11001100 4
b11001100 P
b11001100 l
b11001100 2"
b11001100 4"
1"
