verilog/riscv32_single_cycle/gtkwaveforms/riscv32iSingleCycle.vcd
$date
	Sun Nov  5 18:35:53 2023
$end
$version
	Icarus Verilog
$end
$timescale
	1ps
$end
$scope module riscv32isinglecycle_tb $end
$var parameter 32 ! p $end
$var reg 1 " clk $end
$var reg 1 # rst $end
$scope module DUT $end
$var wire 8 $ CONST4 [7:0] $end
$var wire 1 " clk $end
$var wire 1 % load $end
$var wire 1 # rst $end
$var wire 1 & zf $end
$var wire 32 ' write_data_reg_file [31:0] $end
$var wire 1 ( vf $end
$var wire 1 ) sf $end
$var wire 32 * rs2 [31:0] $end
$var wire 32 + rs1 [31:0] $end
$var wire 1 , reg_write $end
$var wire 32 - read_data_out [31:0] $end
$var wire 32 . r [31:0] $end
$var wire 8 / pc_target_addr [7:0] $end
$var wire 32 0 pc_plus_immediate [31:0] $end
$var wire 8 1 pc_next [7:0] $end
$var wire 8 2 pc_current_address [7:0] $end
$var wire 2 3 mem_write [1:0] $end
$var wire 3 4 mem_read [2:0] $end
$var wire 2 5 mem_out_sel [1:0] $end
$var wire 1 6 jump $end
$var wire 32 7 immediate [31:0] $end
$var wire 1 8 cf $end
$var wire 8 9 branch_target [7:0] $end
$var wire 2 : branch_sel [1:0] $end
$var wire 1 ; branch $end
$var wire 32 < b [31:0] $end
$var wire 4 = alufn [3:0] $end
$var wire 1 > alu_src $end
$var wire 2 ? alu_op [1:0] $end
$var wire 32 @ Instruction [31:0] $end
$var parameter 32 A FUNCT3 $end
$var parameter 32 B FUNCT7 $end
$var parameter 32 C MEM_ADDR $end
$var parameter 32 D N $end
$var parameter 32 E OPCODE $end
$var parameter 32 F RD $end
$var parameter 32 G REG_ADDR $end
$var parameter 32 H RS1 $end
$var parameter 32 I RS2 $end
$var parameter 32 J SHAMT $end
$scope module aluCu_inst $end
$var wire 2 K alu_op [1:0] $end
$var wire 32 L Instruction [31:0] $end
$var reg 4 M alufn [3:0] $end
$scope begin COMBINATIONAL_OUTPUT $end
$upscope $end
$upscope $end
$scope module aluSrc_mux $end
$var wire 32 N sel_out [31:0] $end
$var wire 1 > sel_in $end
$var wire 32 O lo_in [31:0] $end
$var wire 32 P hi_in [31:0] $end
$var parameter 32 Q N $end
$upscope $end
$scope module alu_inst $end
$var wire 5 R Instruction [24:20] $end
$var wire 32 S a [31:0] $end
$var wire 4 T alufn [3:0] $end
$var wire 32 U b [31:0] $end
$var wire 32 V op_b [31:0] $end
$var wire 5 W shamt [4:0] $end
$var wire 1 ( vf $end
$var wire 1 & zf $end
$var wire 32 X sh [31:0] $end
$var wire 1 ) sf $end
$var wire 32 Y rs1 [31:0] $end
$var wire 1 8 cf $end
$var wire 32 Z add [31:0] $end
$var reg 32 [ r [31:0] $end
$scope module shifter0 $end
$var wire 32 \ a [31:0] $end
$var wire 32 ] gnd [31:0] $end
$var wire 5 ^ shamt [4:0] $end
$var wire 2 _ type [1:0] $end
$var reg 32 ` r [31:0] $end
$upscope $end
$upscope $end
$scope module branchCu_inst $end
$var wire 3 a Instruction [14:12] $end
$var wire 1 8 cf $end
$var wire 3 b func3 [2:0] $end
$var wire 1 ) sf $end
$var wire 1 ( vf $end
$var wire 1 & zf $end
$var wire 1 6 jump $end
$var wire 2 c branch_sel [1:0] $end
$var wire 1 ; branch $end
$upscope $end
$scope module cu_inst $end
$var wire 7 d Instruction [6:0] $end
$var wire 1 , reg_write $end
$var wire 2 e mem_write [1:0] $end
$var wire 3 f mem_read [2:0] $end
$var wire 2 g mem_out_sel [1:0] $end
$var wire 1 6 jump $end
$var wire 1 ; branch $end
$var wire 1 > alu_src $end
$var wire 2 h alu_op [1:0] $end
$var reg 13 i flags [12:0] $end
$scope begin COMBINATIONAL_OUTPUT $end
$upscope $end
$upscope $end
$scope module dataMem_inst $end
$var wire 1 " clk $end
$var wire 3 j mem_read [2:0] $end
$var wire 2 k mem_write [1:0] $end
$var wire 32 l r [31:0] $end
$var wire 1 # rst $end
$var wire 32 m rs2 [31:0] $end
$var reg 32 n read_data_out [31:0] $end
$var integer 32 o i [31:0] $end
$scope begin MEM_READ_COMBINATIONAL $end
$upscope $end
$scope begin MEM_WRITE_SEQ $end
$upscope $end
$upscope $end
$scope module immGen_inst $end
$var wire 32 p IR [31:0] $end
$var wire 32 q immediate [31:0] $end
$var wire 32 r Instruction [31:0] $end
$var reg 32 s Imm [31:0] $end
$upscope $end
$scope module instMem_inst $end
$var wire 32 t Instruction [31:0] $end
$var wire 8 u pc_current_address [7:0] $end
$upscope $end
$scope module pc_inst $end
$var wire 1 " clk $end
$var wire 1 % load $end
$var wire 8 v pc_current_address [7:0] $end
$var wire 1 # rst $end
$var wire 8 w pc_target_addr [7:0] $end
$var reg 8 x pc [7:0] $end
$upscope $end
$scope module pc_plus_Imm_ToTarget $end
$var wire 8 y A_in [7:0] $end
$var wire 8 z B_in [7:0] $end
$var wire 1 { gnd $end
$var wire 8 | sum_out [7:0] $end
$var parameter 32 } N $end
$upscope $end
$scope module pc_plus_Imm_ToWriteReg $end
$var wire 32 ~ A_in [31:0] $end
$var wire 32 !" B_in [31:0] $end
$var wire 1 "" gnd $end
$var wire 32 #" sum_out [31:0] $end
$var parameter 32 $" N $end
$upscope $end
$scope module pc_plus_four $end
$var wire 8 %" A_in [7:0] $end
$var wire 8 &" B_in [7:0] $end
$var wire 1 '" gnd $end
$var wire 8 (" sum_out [7:0] $end
$var parameter 32 )" N $end
$upscope $end
$scope module regFile_inst $end
$var wire 32 *" Instruction [31:0] $end
$var wire 1 " clk $end
$var wire 1 , reg_write $end
$var wire 32 +" rs1 [31:0] $end
$var wire 32 ," rs2 [31:0] $end
$var wire 1 # rst $end
$var wire 32 -" write_data_reg_file [31:0] $end
$var wire 5 ." rs2_in [4:0] $end
$var wire 5 /" rs1_in [4:0] $end
$var wire 5 0" rd_in [4:0] $end
$var integer 32 1" i [31:0] $end
$scope begin RESET $end
$upscope $end
$upscope $end
$scope module targetAddr_mux $end
$var wire 8 2" A_00 [7:0] $end
$var wire 8 3" B_01 [7:0] $end
$var wire 8 4" C_10 [7:0] $end
$var wire 8 5" D_11 [7:0] $end
$var wire 2 6" sel [1:0] $end
$var wire 8 7" sel_out [7:0] $end
$var parameter 32 8" N $end
$upscope $end
$scope module writeToReg_mux $end
$var wire 32 9" A_00 [31:0] $end
$var wire 32 :" B_01 [31:0] $end
$var wire 32 ;" C_10 [31:0] $end
$var wire 32 <" D_11 [31:0] $end
$var wire 2 =" sel [1:0] $end
$var wire 32 >" sel_out [31:0] $end
$var parameter 32 ?" N $end
$upscope $end
$upscope $end
$upscope $end
$enddefinitions $end
$comment Show the parameter values. $end
$dumpall
b100000 ?"
b1000 8"
b1000 )"
b100000 $"
b1000 }
b100000 Q
b101 J
b101 I
b101 H
b101 G
b101 F
b111 E
b100000 D
b1000 C
b111 B
b11 A
b10100 !
$end
#0
$dumpvars
b10010011 >"
b1 ="
b100 <"
b10010011 ;"
b10010011 :"
bx 9"
b100 7"
b0 6"
b10010011 5"
b10010011 4"
b10010011 3"
b100 2"
b100000 1"
b110 0"
b0 /"
b10011 ."
b10010011 -"
b0 ,"
b0 +"
b1001001100000000001100010011 *"
b100 ("
0'"
b0 &"
b100 %"
b10010011 #"
0""
b10010011 !"
b0 ~
b10010011 |
0{
b0 z
b10010011 y
b0 x
b100 w
b0 v
b0 u
b1001001100000000001100010011 t
b10010011 s
b1001001100000000001100010011 r
b10010011 q
b1001001100000000001100010011 p
b1000000 o
bx n
b0 m
b10010011 l
b0 k
b0 j
b1110011 i
b11 h
b1 g
b0 f
b0 e
b10011 d
b0 c
b0 b
b0 a
b0 `
b0 _
b10011 ^
b0 ]
b0 \
b10010011 [
b10010011 Z
b0 Y
b0 X
b10011 W
b11111111111111111111111101101100 V
b10010011 U
b0 T
b0 S
b10011 R
b10010011 P
b0 O
b10010011 N
b0 M
b1001001100000000001100010011 L
b11 K
b1001001100000000001100010011 @
b11 ?
1>
b0 =
b10010011 <
0;
b0 :
b10010011 9
08
b10010011 7
06
b1 5
b0 4
b0 3
b0 2
b100 1
b10010011 0
b100 /
b10010011 .
bx -
1,
b0 +
b0 *
0)
1(
b10010011 '
0&
1%
b100 $
1#
0"
$end
#20000
b100000 1"
1"
#40000
0"
#60000
b100000 1"
1"
#80000
0"
0#
#100000
b1 '
b1 -"
b1 >"
b1 5"
b1 Z
b11111111111111111111111111111110 V
b1 ^
b1 .
b1 [
b1 l
b1 :"
b1000 /
b1000 w
b1000 7"
b1 <
b1 N
b1 U
b1 y
b1 ."
b111 0"
b1 7
b1 P
b1 q
b1 s
b1 !"
b1 W
b1 R
b101 4"
b101 9
b101 |
b101 3"
b1000 <"
b1000 1
b1000 ("
b1000 2"
b100000000001110010011 p
b100000000001110010011 @
b100000000001110010011 L
b100000000001110010011 r
b100000000001110010011 t
b100000000001110010011 *"
b1 u
b101 0
b101 #"
b101 ;"
b100 ~
b100 2
b100 v
b100 x
b100 z
b100 &"
1"
#120000
0"
#140000
b1101 '
b1101 -"
b1101 >"
b1101 5"
b1101 Z
b11111111111111111111111111110010 V
b1101 ^
b1101 .
b1101 [
b1101 l
b1101 :"
b1100 /
b1100 w
b1100 7"
b1101 <
b1101 N
b1101 U
b1101 y
b1101 ."
b11100 0"
b1101 7
b1101 P
b1101 q
b1101 s
b1101 !"
b1101 W
b1101 R
b10101 4"
b10101 9
b10101 |
b10101 3"
b1100 <"
b1100 1
b1100 ("
b1100 2"
b110100000000111000010011 p
b110100000000111000010011 @
b110100000000111000010011 L
b110100000000111000010011 r
b110100000000111000010011 t
b110100000000111000010011 *"
b10 u
b10101 0
b10101 #"
b10101 ;"
b1000 ~
b1000 2
b1000 v
b1000 x
b1000 z
b1000 &"
1"
#160000
0"
#180000
b11111111111111111111111111110011 '
b11111111111111111111111111110011 -"
b11111111111111111111111111110011 >"
b11110011 5"
1)
b11111111111111111111111111110011 Z
b1100 V
b10011 ^
b11111111111111111111111111110011 .
b11111111111111111111111111110011 [
b11111111111111111111111111110011 l
b11111111111111111111111111110011 :"
b10000 /
b10000 w
b10000 7"
b11111111111111111111111111110011 <
b11111111111111111111111111110011 N
b11111111111111111111111111110011 U
b11110011 y
b10011 ."
b11101 0"
b11111111111111111111111111110011 7
b11111111111111111111111111110011 P
b11111111111111111111111111110011 q
b11111111111111111111111111110011 s
b11111111111111111111111111110011 !"
b10011 W
b10011 R
b11111111 4"
b11111111 9
b11111111 |
b11111111 3"
b10000 <"
b10000 1
b10000 ("
b10000 2"
b11111111001100000000111010010011 p
b11111111001100000000111010010011 @
b11111111001100000000111010010011 L
b11111111001100000000111010010011 r
b11111111001100000000111010010011 t
b11111111001100000000111010010011 *"
b11 u
b11111111111111111111111111111111 0
b11111111111111111111111111111111 #"
b11111111111111111111111111111111 ;"
b1100 ~
b1100 2
b1100 v
b1100 x
b1100 z
b1100 &"
1"
#200000
0"
#220000
b11111111111111111111111111101100 '
b11111111111111111111111111101100 -"
b11111111111111111111111111101100 >"
b11101100 5"
b11111111111111111111111111101100 Z
b10011 V
b1100 ^
b11111111111111111111111111101100 .
b11111111111111111111111111101100 [
b11111111111111111111111111101100 l
b11111111111111111111111111101100 :"
b10100 /
b10100 w
b10100 7"
b11111111111111111111111111101100 <
b11111111111111111111111111101100 N
b11111111111111111111111111101100 U
b11101100 y
b1100 ."
b11110 0"
b11111111111111111111111111101100 7
b11111111111111111111111111101100 P
b11111111111111111111111111101100 q
b11111111111111111111111111101100 s
b11111111111111111111111111101100 !"
b1100 W
b1100 R
b11111100 4"
b11111100 9
b11111100 |
b11111100 3"
0{
b10100 <"
b10100 1
b10100 ("
b10100 2"
b11111110110000000000111100010011 p
b11111110110000000000111100010011 @
b11111110110000000000111100010011 L
b11111110110000000000111100010011 r
b11111110110000000000111100010011 t
b11111110110000000000111100010011 *"
b100 u
b11111111111111111111111111111100 0
b11111111111111111111111111111100 #"
b11111111111111111111111111111100 ;"
0""
b10000 ~
b10000 2
b10000 v
b10000 x
b10000 z
b10000 &"
1"
#240000
0"
#260000
0)
b11010 '
b11010 -"
b11010 >"
b1110 Z
b11111111111111111111111111111110 V
b1 ^
0>
b11010 5"
b11000 /
b11000 w
b11000 7"
b11010 X
b11010 `
b1 <
b1 N
b1 U
b111 y
b1110001 i
b11010 .
b11010 [
b11010 l
b11010 :"
b1101 S
b1101 \
b1101 +
b1101 Y
b1101 +"
b11100 /"
b1 *
b1 O
b1 m
b1 ,"
b111 ."
b11100 0"
b111 7
b111 P
b111 q
b111 s
b111 !"
b110011 d
b1 b
b1 a
b111 W
b111 R
b1000 =
b1000 M
b1000 T
b11011 4"
b11011 9
b11011 |
b11011 3"
0{
b11000 <"
b11000 1
b11000 ("
b11000 2"
b11111100001111000110011 p
b11111100001111000110011 @
b11111100001111000110011 L
b11111100001111000110011 r
b11111100001111000110011 t
b11111100001111000110011 *"
b101 u
b11011 0
b11011 #"
b11011 ;"
0""
b10100 ~
b10100 2
b10100 v
b10100 x
b10100 z
b10100 &"
1"
#280000
0"
#300000
b1101 '
b1101 -"
b1101 >"
b1101 5"
b11100 /
b11100 w
b11100 7"
b10 _
b11011 Z
b101 b
b101 a
b1010 =
b1010 M
b1010 T
b11111 4"
b1101 X
b1101 `
b1101 .
b1101 [
b1101 l
b1101 :"
b11111 9
b11111 |
b11111 3"
b11100 <"
b11100 1
b11100 ("
b11100 2"
b11111100101111000110011 p
b11111100101111000110011 @
b11111100101111000110011 L
b11111100101111000110011 r
b11111100101111000110011 t
b11111100101111000110011 *"
b110 u
b11111 0
b11111 #"
b11111 ;"
b11010 S
b11010 \
b11010 +
b11010 Y
b11010 +"
b11000 ~
b11000 2
b11000 v
b11000 x
b11000 z
b11000 &"
1"
#320000
0"
#340000
0(
1)
b11111111111111111111111111111001 '
b11111111111111111111111111111001 -"
b11111111111111111111111111111001 >"
18
b11111001 5"
b100000 /
b100000 w
b100000 7"
b1 _
b11111111111111111111111111110010 Z
b11101 /"
b11101 0"
b10000000111 7
b10000000111 P
b10000000111 q
b10000000111 s
b10000000111 !"
b1001 =
b1001 M
b1001 T
b100011 4"
b11111111111111111111111111111001 X
b11111111111111111111111111111001 `
b11111111111111111111111111111001 .
b11111111111111111111111111111001 [
b11111111111111111111111111111001 l
b11111111111111111111111111111001 :"
b100011 9
b100011 |
b100011 3"
b100000 <"
b100000 1
b100000 ("
b100000 2"
b1000000011111101101111010110011 p
b1000000011111101101111010110011 @
b1000000011111101101111010110011 L
b1000000011111101101111010110011 r
b1000000011111101101111010110011 t
b1000000011111101101111010110011 *"
b111 u
b10000100011 0
b10000100011 #"
b10000100011 ;"
b11111111111111111111111111110011 S
b11111111111111111111111111110011 \
b11111111111111111111111111110011 +
b11111111111111111111111111110011 Y
b11111111111111111111111111110011 +"
b11100 ~
b11100 2
b11100 v
b11100 x
b11100 z
b11100 &"
1"
#360000
0"
#380000
1(
08
b11111111111111111111111111111010 '
b11111111111111111111111111111010 -"
b11111111111111111111111111111010 >"
b11111010 5"
b100100 /
b100100 w
b100100 7"
b0 _
b11111111111111111111111111111010 Z
b111 7
b111 P
b111 q
b111 s
b111 !"
b0 b
b0 a
b0 =
b0 M
b0 T
b100111 4"
b11111111111111111111111111110010 X
b11111111111111111111111111110010 `
b11111111111111111111111111111010 .
b11111111111111111111111111111010 [
b11111111111111111111111111111010 l
b11111111111111111111111111111010 :"
b100111 9
b100111 |
b100111 3"
b100100 <"
b100100 1
b100100 ("
b100100 2"
b11111101000111010110011 p
b11111101000111010110011 @
b11111101000111010110011 L
b11111101000111010110011 r
b11111101000111010110011 t
b11111101000111010110011 *"
b1000 u
b100111 0
b100111 #"
b100111 ;"
b11111111111111111111111111111001 S
b11111111111111111111111111111001 \
b11111111111111111111111111111001 +
b11111111111111111111111111111001 Y
b11111111111111111111111111111001 +"
b100000 ~
b100000 2
b100000 v
b100000 x
b100000 z
b100000 &"
1"
#400000
0"
#420000
0(
b10011 '
b10011 -"
b10011 >"
0)
b10011 5"
08
b101 V
b11010 ^
b101000 /
b101000 w
b101000 7"
b11111111111111111111111111111010 <
b11111111111111111111111111111010 N
b11111111111111111111111111111010 U
b11101 y
b1 _
b10011 Z
b11100 /"
b11111111111111111111111111111010 *
b11111111111111111111111111111010 O
b11111111111111111111111111111010 m
b11111111111111111111111111111010 ,"
b11101 ."
b10000011101 7
b10000011101 P
b10000011101 q
b10000011101 s
b10000011101 !"
b11101 W
b11101 R
b1 =
b1 M
b1 T
b1000001 4"
b0 X
b0 `
b10011 .
b10011 [
b10011 l
b10011 :"
b1000001 9
b1000001 |
b1000001 3"
b101000 <"
b101000 1
b101000 ("
b101000 2"
b1000001110111100000111010110011 p
b1000001110111100000111010110011 @
b1000001110111100000111010110011 L
b1000001110111100000111010110011 r
b1000001110111100000111010110011 t
b1000001110111100000111010110011 *"
b1001 u
b10001000001 0
b10001000001 #"
b10001000001 ;"
b1101 S
b1101 \
b1101 +
b1101 Y
b1101 +"
b100100 ~
b100100 2
b100100 v
b100100 x
b100100 z
b100100 &"
1"
#440000
0"
#460000
1(
b10011111 '
b10011111 -"
b10011111 >"
b10100000 Z
b10011111 5"
b101100 /
b101100 w
b101100 7"
b100100110000000000000 X
b100100110000000000000 `
b11100 y
b0 _
b11111111111111111111111111110010 V
b1101 ^
b10011111 .
b10011111 [
b10011111 l
b10011111 :"
b10010011 S
b10010011 \
b10010011 +
b10010011 Y
b10010011 +"
b110 /"
b11100 ."
b11100 7
b11100 P
b11100 q
b11100 s
b11100 !"
b110 b
b110 a
b11100 W
b11100 R
b100 =
b100 M
b100 T
b1000100 4"
b1101 <
b1101 N
b1101 U
b1000100 9
b1000100 |
b1000100 3"
b101100 <"
b101100 1
b101100 ("
b101100 2"
b1110000110110111010110011 p
b1110000110110111010110011 @
b1110000110110111010110011 L
b1110000110110111010110011 r
b1110000110110111010110011 t
b1110000110110111010110011 *"
b1010 u
b1000100 0
b1000100 #"
b1000100 ;"
b1101 *
b1101 O
b1101 m
b1101 ,"
b101000 ~
b101000 2
b101000 v
b101000 x
b101000 z
b101000 &"
1"
#480000
0"
#500000
1)
0(
b10011110 '
b10011110 -"
b10011110 >"
0&
b11111111111111111111111101111010 Z
08
b11111111111111111111111101101100 V
b10011 ^
b10011110 5"
b110000 /
b110000 w
b110000 7"
b0 X
b0 `
b10010011 <
b10010011 N
b10010011 U
b110 y
b10011110 .
b10011110 [
b10011110 l
b10011110 :"
b11 _
b1101 S
b1101 \
b1101 +
b1101 Y
b1101 +"
b11100 /"
b10010011 *
b10010011 O
b10010011 m
b10010011 ,"
b110 ."
b110 7
b110 P
b110 q
b110 s
b110 !"
b100 b
b100 a
b110 W
b110 R
b111 =
b111 M
b111 T
b110010 4"
b110010 9
b110010 |
b110010 3"
b110000 <"
b110000 1
b110000 ("
b110000 2"
b11011100100111010110011 p
b11011100100111010110011 @
b11011100100111010110011 L
b11011100100111010110011 r
b11011100100111010110011 t
b11011100100111010110011 *"
b1011 u
b110010 0
b110010 #"
b110010 ;"
b101100 ~
b101100 2
b101100 v
b101100 x
b101100 z
b101100 &"
1"
#520000
0"
#540000
b1 '
b1 -"
b1 >"
b11111111111111111111111101101110 Z
b1 5"
b110100 /
b110100 w
b110100 7"
b1 .
b1 [
b1 l
b1 :"
b1 _
b1 S
b1 \
b1 +
b1 Y
b1 +"
b111 /"
b111 b
b111 a
b101 =
b101 M
b101 T
b110110 4"
b110110 9
b110110 |
b110110 3"
b110100 <"
b110100 1
b110100 ("
b110100 2"
b11000111111111010110011 p
b11000111111111010110011 @
b11000111111111010110011 L
b11000111111111010110011 r
b11000111111111010110011 t
b11000111111111010110011 *"
b1100 u
b110110 0
b110110 #"
b110110 ;"
b110000 ~
b110000 2
b110000 v
b110000 x
b110000 z
b110000 &"
1"
#560000
0"
#580000
b11111111111111111111111111110100 Z
b11111111111111111111111111110010 V
b1101 ^
b111000 /
b111000 w
b111000 7"
b1101 <
b1101 N
b1101 U
b11100 y
b1 .
b1 [
b1 l
b1 :"
b1101 *
b1101 O
b1101 m
b1101 ,"
b11100 ."
b11100 7
b11100 P
b11100 q
b11100 s
b11100 !"
b10 b
b10 a
b11100 W
b11100 R
b1101 =
b1101 M
b1101 T
b1010000 4"
b1010000 9
b1010000 |
b1010000 3"
b111000 <"
b111000 1
b111000 ("
b111000 2"
b1110000111010111010110011 p
b1110000111010111010110011 @
b1110000111010111010110011 L
b1110000111010111010110011 r
b1110000111010111010110011 t
b1110000111010111010110011 *"
b1101 u
b1010000 0
b1010000 #"
b1010000 ;"
b110100 ~
b110100 2
b110100 v
b110100 x
b110100 z
b110100 &"
1"
#600000
0"
#620000
b0 '
b0 -"
b0 >"
b0 5"
b11111111111111111111111111101011 Z
18
b11111111111111111111111111111110 V
b1 ^
b111100 /
b111100 w
b111100 7"
b1 <
b1 N
b1 U
b111 y
b0 .
b0 [
b0 l
b0 :"
b11 _
b11111111111111111111111111101100 S
b11111111111111111111111111101100 \
b11111111111111111111111111101100 +
b11111111111111111111111111101100 Y
b11111111111111111111111111101100 +"
b11110 /"
b1 *
b1 O
b1 m
b1 ,"
b111 ."
b111 7
b111 P
b111 q
b111 s
b111 !"
b11 b
b11 a
b111 W
b111 R
b1111 =
b1111 M
b1111 T
b111111 4"
b111111 9
b111111 |
b111111 3"
b111100 <"
b111100 1
b111100 ("
b111100 2"
b11111110011111010110011 p
b11111110011111010110011 @
b11111110011111010110011 L
b11111110011111010110011 r
b11111110011111010110011 t
b11111110011111010110011 *"
b1110 u
b111111 0
b111111 #"
b111111 ;"
b111000 ~
b111000 2
b111000 v
b111000 x
b111000 z
b111000 &"
1"
#640000
0"
#660000
x)
x(
bx '
bx -"
bx >"
x&
bx Z
x8
bx V
bx ^
x{
b0 5
b0 g
b0 ="
b0 ?
b0 K
b0 h
0,
bx 5"
b1000000 /
b1000000 w
b1000000 7"
bx <
bx N
bx U
x""
bx y
b0 i
bx .
bx [
bx l
bx :"
bx S
bx \
bx +
bx Y
bx +"
bx /"
bx *
bx O
bx m
bx ,"
bx ."
bx 0"
bx 7
bx P
bx q
bx s
bx !"
bx d
bx b
bx a
bx W
bx R
b11 =
b11 M
b11 T
bx 4"
bx 9
bx |
bx 3"
b1000000 <"
b1000000 1
b1000000 ("
b1000000 2"
bx p
bx @
bx L
bx r
bx t
bx *"
b1111 u
bx 0
bx #"
bx ;"
b111100 ~
b111100 2
b111100 v
b111100 x
b111100 z
b111100 &"
1"
#680000
0"
#700000
b1000100 /
b1000100 w
b1000100 7"
b1000100 <"
b1000100 1
b1000100 ("
b1000100 2"
b10000 u
b1000000 ~
b1000000 2
b1000000 v
b1000000 x
b1000000 z
b1000000 &"
1"
#720000
0"
#740000
b1001000 /
b1001000 w
b1001000 7"
b1001000 <"
b1001000 1
b1001000 ("
b1001000 2"
b10001 u
b1000100 ~
b1000100 2
b1000100 v
b1000100 x
b1000100 z
b1000100 &"
1"
#760000
0"
#780000
b1001100 /
b1001100 w
b1001100 7"
b1001100 <"
b1001100 1
b1001100 ("
b1001100 2"
b10010 u
b1001000 ~
b1001000 2
b1001000 v
b1001000 x
b1001000 z
b1001000 &"
1"
#800000
0"
#820000
b1010000 /
b1010000 w
b1010000 7"
b1010000 <"
b1010000 1
b1010000 ("
b1010000 2"
b10011 u
b1001100 ~
b1001100 2
b1001100 v
b1001100 x
b1001100 z
b1001100 &"
1"
#840000
0"
#860000
b1010100 /
b1010100 w
b1010100 7"
b1010100 <"
b1010100 1
b1010100 ("
b1010100 2"
b10100 u
b1010000 ~
b1010000 2
b1010000 v
b1010000 x
b1010000 z
b1010000 &"
1"
#880000
0"
#900000
b1011000 /
b1011000 w
b1011000 7"
b1011000 <"
b1011000 1
b1011000 ("
b1011000 2"
b10101 u
b1010100 ~
b1010100 2
b1010100 v
b1010100 x
b1010100 z
b1010100 &"
1"
#920000
0"
#940000
b1011100 /
b1011100 w
b1011100 7"
b1011100 <"
b1011100 1
b1011100 ("
b1011100 2"
b10110 u
b1011000 ~
b1011000 2
b1011000 v
b1011000 x
b1011000 z
b1011000 &"
1"
#960000
0"
#980000
b1100000 /
b1100000 w
b1100000 7"
b1100000 <"
b1100000 1
b1100000 ("
b1100000 2"
b10111 u
b1011100 ~
b1011100 2
b1011100 v
b1011100 x
b1011100 z
b1011100 &"
1"
#1000000
0"
#1020000
b1100100 /
b1100100 w
b1100100 7"
b1100100 <"
b1100100 1
b1100100 ("
b1100100 2"
b11000 u
b1100000 ~
b1100000 2
b1100000 v
b1100000 x
b1100000 z
b1100000 &"
1"
#1040000
0"
#1060000
b1101000 /
b1101000 w
b1101000 7"
b1101000 <"
b1101000 1
b1101000 ("
b1101000 2"
b11001 u
b1100100 ~
b1100100 2
b1100100 v
b1100100 x
b1100100 z
b1100100 &"
1"
#1080000
0"
#1100000
b1101100 /
b1101100 w
b1101100 7"
b1101100 <"
b1101100 1
b1101100 ("
b1101100 2"
b11010 u
b1101000 ~
b1101000 2
b1101000 v
b1101000 x
b1101000 z
b1101000 &"
1"
#1120000
0"
#1140000
b1110000 /
b1110000 w
b1110000 7"
b1110000 <"
b1110000 1
b1110000 ("
b1110000 2"
b11011 u
b1101100 ~
b1101100 2
b1101100 v
b1101100 x
b1101100 z
b1101100 &"
1"
#1160000
0"
#1180000
b1110100 /
b1110100 w
b1110100 7"
b1110100 <"
b1110100 1
b1110100 ("
b1110100 2"
b11100 u
b1110000 ~
b1110000 2
b1110000 v
b1110000 x
b1110000 z
b1110000 &"
1"
#1200000
0"
#1220000
b1111000 /
b1111000 w
b1111000 7"
b1111000 <"
b1111000 1
b1111000 ("
b1111000 2"
b11101 u
b1110100 ~
b1110100 2
b1110100 v
b1110100 x
b1110100 z
b1110100 &"
1"
#1240000
0"
#1260000
b1111100 /
b1111100 w
b1111100 7"
b1111100 <"
b1111100 1
b1111100 ("
b1111100 2"
b11110 u
b1111000 ~
b1111000 2
b1111000 v
b1111000 x
b1111000 z
b1111000 &"
1"
#1280000
0"
#1300000
b10000000 /
b10000000 w
b10000000 7"
b10000000 <"
b10000000 1
b10000000 ("
b10000000 2"
b11111 u
b1111100 ~
b1111100 2
b1111100 v
b1111100 x
b1111100 z
b1111100 &"
1"
#1320000
0"
#1340000
b10000100 /
b10000100 w
b10000100 7"
b10000100 <"
b10000100 1
b10000100 ("
b10000100 2"
b100000 u
b10000000 ~
b10000000 2
b10000000 v
b10000000 x
b10000000 z
b10000000 &"
1"
#1360000
0"
#1380000
b10001000 /
b10001000 w
b10001000 7"
b10001000 <"
b10001000 1
b10001000 ("
b10001000 2"
b100001 u
b10000100 ~
b10000100 2
b10000100 v
b10000100 x
b10000100 z
b10000100 &"
1"
#1400000
0"
#1420000
b10001100 /
b10001100 w
b10001100 7"
b10001100 <"
b10001100 1
b10001100 ("
b10001100 2"
b100010 u
b10001000 ~
b10001000 2
b10001000 v
b10001000 x
b10001000 z
b10001000 &"
1"
#1440000
0"
#1460000
b10010000 /
b10010000 w
b10010000 7"
b10010000 <"
b10010000 1
b10010000 ("
b10010000 2"
b100011 u
b10001100 ~
b10001100 2
b10001100 v
b10001100 x
b10001100 z
b10001100 &"
1"
#1480000
0"
#1500000
b10010100 /
b10010100 w
b10010100 7"
b10010100 <"
b10010100 1
b10010100 ("
b10010100 2"
b100100 u
b10010000 ~
b10010000 2
b10010000 v
b10010000 x
b10010000 z
b10010000 &"
1"
#1520000
0"
#1540000
b10011000 /
b10011000 w
b10011000 7"
b10011000 <"
b10011000 1
b10011000 ("
b10011000 2"
b100101 u
b10010100 ~
b10010100 2
b10010100 v
b10010100 x
b10010100 z
b10010100 &"
1"
#1560000
0"
#1580000
b10011100 /
b10011100 w
b10011100 7"
b10011100 <"
b10011100 1
b10011100 ("
b10011100 2"
b100110 u
b10011000 ~
b10011000 2
b10011000 v
b10011000 x
b10011000 z
b10011000 &"
1"
#1600000
0"
#1620000
b10100000 /
b10100000 w
b10100000 7"
b10100000 <"
b10100000 1
b10100000 ("
b10100000 2"
b100111 u
b10011100 ~
b10011100 2
b10011100 v
b10011100 x
b10011100 z
b10011100 &"
1"
#1640000
0"
#1660000
b10100100 /
b10100100 w
b10100100 7"
b10100100 <"
b10100100 1
b10100100 ("
b10100100 2"
b101000 u
b10100000 ~
b10100000 2
b10100000 v
b10100000 x
b10100000 z
b10100000 &"
1"
#1680000
0"
#1700000
b10101000 /
b10101000 w
b10101000 7"
b10101000 <"
b10101000 1
b10101000 ("
b10101000 2"
b101001 u
b10100100 ~
b10100100 2
b10100100 v
b10100100 x
b10100100 z
b10100100 &"
1"
#1720000
0"
#1740000
b10101100 /
b10101100 w
b10101100 7"
b10101100 <"
b10101100 1
b10101100 ("
b10101100 2"
b101010 u
b10101000 ~
b10101000 2
b10101000 v
b10101000 x
b10101000 z
b10101000 &"
1"
#1760000
0"
#1780000
b10110000 /
b10110000 w
b10110000 7"
b10110000 <"
b10110000 1
b10110000 ("
b10110000 2"
b101011 u
b10101100 ~
b10101100 2
b10101100 v
b10101100 x
b10101100 z
b10101100 &"
1"
#1800000
0"
#1820000
b10110100 /
b10110100 w
b10110100 7"
b10110100 <"
b10110100 1
b10110100 ("
b10110100 2"
b101100 u
b10110000 ~
b10110000 2
b10110000 v
b10110000 x
b10110000 z
b10110000 &"
1"
#1840000
0"
#1860000
b10111000 /
b10111000 w
b10111000 7"
b10111000 <"
b10111000 1
b10111000 ("
b10111000 2"
b101101 u
b10110100 ~
b10110100 2
b10110100 v
b10110100 x
b10110100 z
b10110100 &"
1"
#1880000
0"
#1900000
b10111100 /
b10111100 w
b10111100 7"
b10111100 <"
b10111100 1
b10111100 ("
b10111100 2"
b101110 u
b10111000 ~
b10111000 2
b10111000 v
b10111000 x
b10111000 z
b10111000 &"
1"
#1920000
0"
