verilog/riscv32_single_cycle/gtkwaveforms/riscv32iSingleCycle.vcd
$date
	Sun Nov  5 05:09:50 2023
$end
$version
	Icarus Verilog
$end
$timescale
	1ps
$end
$scope module riscv32isinglecycle_tb $end
$var parameter 32 ! p $end
$var reg 1 " clk $end
$var reg 1 # rst $end
$scope module DUT $end
$var wire 8 $ CONST4 [7:0] $end
$var wire 32 % CONSTZ32 [31:0] $end
$var wire 8 & CONSTZ8 [7:0] $end
$var wire 1 " clk $end
$var wire 1 ' load $end
$var wire 1 # rst $end
$var wire 1 ( zf $end
$var wire 32 ) write_data_reg_file [31:0] $end
$var wire 1 * vf $end
$var wire 1 + sf $end
$var wire 32 , rs2 [31:0] $end
$var wire 32 - rs1 [31:0] $end
$var wire 1 . reg_write $end
$var wire 32 / read_data_out [31:0] $end
$var wire 32 0 r [31:0] $end
$var wire 8 1 pc_target_addr [7:0] $end
$var wire 32 2 pc_plus_immediate [31:0] $end
$var wire 8 3 pc_next [7:0] $end
$var wire 8 4 pc_current_address [7:0] $end
$var wire 1 5 mem_write $end
$var wire 1 6 mem_read $end
$var wire 2 7 mem_out_sel [1:0] $end
$var wire 1 8 jump $end
$var wire 32 9 immediate [31:0] $end
$var wire 1 : cf $end
$var wire 8 ; branch_target [7:0] $end
$var wire 2 < branch_sel [1:0] $end
$var wire 1 = branch $end
$var wire 32 > b [31:0] $end
$var wire 4 ? alufn [3:0] $end
$var wire 1 @ alu_src $end
$var wire 2 A alu_op [1:0] $end
$var wire 32 B Instruction [31:0] $end
$var parameter 32 C FUNCT3 $end
$var parameter 32 D FUNCT7 $end
$var parameter 32 E MEM_ADDR $end
$var parameter 32 F N $end
$var parameter 32 G OPCODE $end
$var parameter 32 H RD $end
$var parameter 32 I REG_ADDR $end
$var parameter 32 J RS1 $end
$var parameter 32 K RS2 $end
$var parameter 32 L SHAMT $end
$scope module U_10 $end
$var wire 8 M A_in [7:0] $end
$var wire 1 N gnd $end
$var wire 8 O sum_out [7:0] $end
$var wire 8 P B_in [7:0] $end
$var parameter 32 Q N $end
$upscope $end
$scope module U_12 $end
$var wire 32 R A_in [31:0] $end
$var wire 1 S gnd $end
$var wire 32 T sum_out [31:0] $end
$var wire 32 U B_in [31:0] $end
$var parameter 32 V N $end
$upscope $end
$scope module U_13 $end
$var wire 32 W sel_out [31:0] $end
$var wire 1 @ sel_in $end
$var wire 32 X lo_in [31:0] $end
$var wire 32 Y hi_in [31:0] $end
$var parameter 32 Z N $end
$upscope $end
$scope module U_15 $end
$var wire 32 [ C_10 [31:0] $end
$var wire 32 \ D_11 [31:0] $end
$var wire 32 ] sel_out [31:0] $end
$var wire 2 ^ sel [1:0] $end
$var wire 32 _ B_01 [31:0] $end
$var wire 32 ` A_00 [31:0] $end
$var parameter 32 a N $end
$upscope $end
$scope module U_16 $end
$var wire 8 b B_01 [7:0] $end
$var wire 8 c C_10 [7:0] $end
$var wire 8 d D_11 [7:0] $end
$var wire 8 e sel_out [7:0] $end
$var wire 2 f sel [1:0] $end
$var wire 8 g A_00 [7:0] $end
$var parameter 32 h N $end
$upscope $end
$scope module U_9 $end
$var wire 8 i A_in [7:0] $end
$var wire 1 j gnd $end
$var wire 8 k sum_out [7:0] $end
$var wire 8 l B_in [7:0] $end
$var parameter 32 m N $end
$upscope $end
$scope module aluCu_inst $end
$var wire 2 n alu_op [1:0] $end
$var wire 32 o Instruction [31:0] $end
$var reg 4 p alufn [3:0] $end
$scope begin COMBINATIONAL_OUTPUT $end
$upscope $end
$upscope $end
$scope module alu_inst $end
$var wire 5 q Instruction [24:20] $end
$var wire 32 r a [31:0] $end
$var wire 4 s alufn [3:0] $end
$var wire 32 t b [31:0] $end
$var wire 32 u op_b [31:0] $end
$var wire 1 * vf $end
$var wire 1 ( zf $end
$var wire 1 v shamt $end
$var wire 32 w sh [31:0] $end
$var wire 1 + sf $end
$var wire 32 x rs1 [31:0] $end
$var wire 1 : cf $end
$var wire 32 y add [31:0] $end
$var reg 32 z r [31:0] $end
$scope module shifter0 $end
$var wire 32 { a [31:0] $end
$var wire 32 | gnd [31:0] $end
$var wire 5 } shamt [4:0] $end
$var wire 2 ~ type [1:0] $end
$var reg 32 !" r [31:0] $end
$upscope $end
$upscope $end
$scope module branchCu_inst $end
$var wire 3 "" Instruction [14:12] $end
$var wire 1 : cf $end
$var wire 3 #" func3 [2:0] $end
$var wire 1 + sf $end
$var wire 1 * vf $end
$var wire 1 ( zf $end
$var wire 1 8 jump $end
$var wire 2 $" branch_sel [1:0] $end
$var wire 1 = branch $end
$upscope $end
$scope module cu_inst $end
$var wire 7 %" Instruction [6:0] $end
$var wire 1 . reg_write $end
$var wire 1 5 mem_write $end
$var wire 1 6 mem_read $end
$var wire 2 &" mem_out_sel [1:0] $end
$var wire 1 8 jump $end
$var wire 1 = branch $end
$var wire 1 @ alu_src $end
$var wire 2 '" alu_op [1:0] $end
$var reg 10 (" flags [9:0] $end
$scope begin COMBINATIONAL_OUTPUT $end
$upscope $end
$upscope $end
$scope module dataMem_inst $end
$var wire 1 " clk $end
$var wire 1 6 mem_read $end
$var wire 1 5 mem_write $end
$var wire 32 )" r [31:0] $end
$var wire 1 # rst $end
$var wire 32 *" rs2 [31:0] $end
$var wire 32 +" read_data_out [31:0] $end
$scope begin MEM_WRITE_SEQ $end
$upscope $end
$upscope $end
$scope module immGen_inst $end
$var wire 32 ," IR [31:0] $end
$var wire 32 -" immediate [31:0] $end
$var wire 32 ." Instruction [31:0] $end
$var reg 32 /" Imm [31:0] $end
$upscope $end
$scope module instMem_inst $end
$var wire 32 0" Instruction [31:0] $end
$var wire 8 1" pc_current_address [7:0] $end
$upscope $end
$scope module pc_inst $end
$var wire 1 " clk $end
$var wire 1 ' load $end
$var wire 8 2" pc_current_address [7:0] $end
$var wire 8 3" pc_target_addr [7:0] $end
$var wire 1 # rst $end
$var reg 8 4" pc [7:0] $end
$upscope $end
$scope module regFile_inst $end
$var wire 32 5" Instruction [31:0] $end
$var wire 1 " clk $end
$var wire 1 . reg_write $end
$var wire 32 6" rs1 [31:0] $end
$var wire 32 7" rs2 [31:0] $end
$var wire 1 # rst $end
$var wire 32 8" write_data_reg_file [31:0] $end
$var wire 5 9" rs2_in [4:0] $end
$var wire 5 :" rs1_in [4:0] $end
$var wire 5 ;" rd_in [4:0] $end
$var integer 32 <" i [31:0] $end
$scope begin RESET $end
$upscope $end
$upscope $end
$upscope $end
$upscope $end
$enddefinitions $end
$comment Show the parameter values. $end
$dumpall
b1000 m
b1000 h
b100000 a
b100000 Z
b100000 V
b1000 Q
b101 L
b101 K
b101 J
b101 I
b101 H
b111 G
b100000 F
b1000 E
b111 D
b11 C
b10100 !
$end
#0
$dumpvars
b100000 <"
b11 ;"
b0 :"
b100 9"
b10100 8"
b0 7"
b0 6"
b10000000010000110000011 5"
b0 4"
b100 3"
b0 2"
b0 1"
b10000000010000110000011 0"
b100 /"
b10000000010000110000011 ."
b100 -"
b10000000010000110000011 ,"
b10100 +"
b0 *"
b100 )"
b10010011 ("
b10 '"
b0 &"
b11 %"
b0 $"
b10 #"
b10 ""
b0 !"
b0 ~
b0 }
b0 |
b0 {
b100 z
b100 y
b0 x
b0 w
0v
b11111111111111111111111111111011 u
b100 t
b0 s
b0 r
b100 q
b0 p
b10000000010000110000011 o
b10 n
b0 l
b100 k
0j
b100 i
b100 g
b0 f
b100 e
b0 d
b100 c
b100 b
b10100 `
b100 _
b0 ^
b10100 ]
b0 \
b100 [
b100 Y
b0 X
b100 W
b100 U
b100 T
0S
b0 R
b0 P
b100 O
0N
b100 M
b10000000010000110000011 B
b10 A
1@
b0 ?
b100 >
0=
b0 <
b100 ;
0:
b100 9
08
b0 7
16
05
b0 4
b100 3
b100 2
b100 1
b100 0
b10100 /
1.
b0 -
b0 ,
0+
1*
b10100 )
0(
1'
b0 &
b0 %
b100 $
1#
0"
$end
#20000
b100000 <"
1"
#40000
0"
#60000
b100000 <"
1"
#80000
0"
0#
#100000
b1 )
b1 ]
b1 8"
b1 /
b1 `
b1 +"
1*
b10000 y
1:
b11 u
xN
b1000 1
b1000 e
b1000 3"
b10100 w
b10100 !"
b10000 0
b10000 _
b10000 z
b10000 )"
b11111111111111111111111111111100 >
b11111111111111111111111111111100 W
b11111111111111111111111111111100 t
xS
b11111100 M
b10100 r
b10100 {
b10100 -
b10100 x
b10100 6"
b11 :"
b11100 9"
b1 ;"
b11111111111111111111111111111100 9
b11111111111111111111111111111100 U
b11111111111111111111111111111100 Y
b11111111111111111111111111111100 -"
b11111111111111111111111111111100 /"
b11100 q
b0 c
b1000 3
b1000 g
b1000 k
b0 ;
b0 O
b0 b
b11111111110000011010000010000011 ,"
b11111111110000011010000010000011 B
b11111111110000011010000010000011 o
b11111111110000011010000010000011 ."
b11111111110000011010000010000011 0"
b11111111110000011010000010000011 5"
b1 1"
b0 2
b0 T
b0 [
b100 R
b100 4
b100 P
b100 l
b100 2"
b100 4"
1"
#120000
0"
#140000
b10011 )
b10011 ]
b10011 8"
0*
b1 ~
b10011 y
1:
b1 ?
b1 p
b1 s
b11111111111111111111111111111110 u
b10011 0
b10011 _
b10011 z
b10011 )"
0N
06
b1 7
b1 ^
b1 &"
b11 A
b11 n
b11 '"
0@
b1010 w
b1010 !"
b1100 1
b1100 e
b1100 3"
b1 >
b1 W
b1 t
0S
b1 M
b111001 ("
b1 }
1v
b1 ,
b1 X
b1 *"
b1 7"
b1 9"
b11 ;"
b10000000001 9
b10000000001 U
b10000000001 Y
b10000000001 -"
b10000000001 /"
b110011 %"
b0 #"
b0 ""
b1 q
b1001 c
b1100 3
b1100 g
b1100 k
b1001 ;
b1001 O
b1001 b
b1000000000100011000000110110011 ,"
b1000000000100011000000110110011 B
b1000000000100011000000110110011 o
b1000000000100011000000110110011 ."
b1000000000100011000000110110011 0"
b1000000000100011000000110110011 5"
b10 1"
b10000001001 2
b10000001001 T
b10000001001 [
b1000 R
b1000 4
b1000 P
b1000 l
b1000 2"
b1000 4"
1"
#160000
0"
#180000
0*
b10011 )
b10011 ]
b10011 8"
1:
b11111111111111111111111111111111 u
1=
b1 A
b1 n
b1 '"
0.
b10000 1
b10000 e
b10000 3"
b0 >
b0 W
b0 t
b1000 M
b100101000 ("
b0 }
0v
b1 ~
b10011 y
b0 ,
b0 X
b0 *"
b0 7"
b0 9"
b1000 ;"
b1000 9
b1000 U
b1000 Y
b1000 -"
b1000 /"
b1100011 %"
b0 q
b1 ?
b1 p
b1 s
b10100 c
b10011 w
b10011 !"
b10011 0
b10011 _
b10011 z
b10011 )"
b10000 3
b10000 g
b10000 k
b10100 ;
b10100 O
b10100 b
b11000010001100011 ,"
b11000010001100011 B
b11000010001100011 o
b11000010001100011 ."
b11000010001100011 0"
b11000010001100011 5"
b11 1"
b10100 2
b10100 T
b10100 [
b10011 r
b10011 {
b10011 -
b10011 x
b10011 6"
b1100 R
b1100 4
b1100 P
b1100 l
b1100 2"
b1100 4"
1"
#200000
0"
#220000
b1 <
b1 f
b1 $"
b0 )
b0 ]
b0 8"
1(
b0 y
xN
b1000 1
b1000 e
b1000 3"
b0 w
b0 !"
b0 0
b0 _
b0 z
b0 )"
xS
b11111000 M
b0 r
b0 {
b0 -
b0 x
b0 6"
b0 :"
b11001 ;"
b11111111111111111111111111111000 9
b11111111111111111111111111111000 U
b11111111111111111111111111111000 Y
b11111111111111111111111111111000 -"
b11111111111111111111111111111000 /"
b1000 c
b10100 3
b10100 g
b10100 k
b1000 ;
b1000 O
b1000 b
b11111110000000000000110011100011 ,"
b11111110000000000000110011100011 B
b11111110000000000000110011100011 o
b11111110000000000000110011100011 ."
b11111110000000000000110011100011 0"
b11111110000000000000110011100011 5"
b100 1"
b1000 2
b1000 T
b1000 [
b10000 R
b10000 4
b10000 P
b10000 l
b10000 2"
b10000 4"
1"
#240000
0"
#260000
b10010 )
b10010 ]
b10010 8"
b0 <
b0 f
b0 $"
b10010 0
b10010 _
b10010 z
b10010 )"
0(
b10010 y
b11111111111111111111111111111110 u
0N
0=
b11 A
b11 n
b11 '"
1.
b1100 1
b1100 e
b1100 3"
b1001 w
b1001 !"
b1 >
b1 W
b1 t
0S
b1 M
b111001 ("
b1 }
1v
b10011 r
b10011 {
b10011 -
b10011 x
b10011 6"
b11 :"
b1 ,
b1 X
b1 *"
b1 7"
b1 9"
b11 ;"
b10000000001 9
b10000000001 U
b10000000001 Y
b10000000001 -"
b10000000001 /"
b110011 %"
b1 q
b1001 c
b1100 3
b1100 g
b1100 k
b1001 ;
b1001 O
b1001 b
b1000000000100011000000110110011 ,"
b1000000000100011000000110110011 B
b1000000000100011000000110110011 o
b1000000000100011000000110110011 ."
b1000000000100011000000110110011 0"
b1000000000100011000000110110011 5"
b10 1"
b10000001001 2
b10000001001 T
b10000001001 [
b1000 R
b1000 4
b1000 P
b1000 l
b1000 2"
b1000 4"
1"
#280000
0"
#300000
0*
b10010 )
b10010 ]
b10010 8"
1:
b11111111111111111111111111111111 u
1=
b1 A
b1 n
b1 '"
0.
b10010 w
b10010 !"
b10000 1
b10000 e
b10000 3"
b0 >
b0 W
b0 t
b1000 M
b100101000 ("
b0 }
0v
b1 ~
b10010 y
b0 ,
b0 X
b0 *"
b0 7"
b0 9"
b1000 ;"
b1000 9
b1000 U
b1000 Y
b1000 -"
b1000 /"
b1100011 %"
b0 q
b1 ?
b1 p
b1 s
b10100 c
b10010 0
b10010 _
b10010 z
b10010 )"
b10000 3
b10000 g
b10000 k
b10100 ;
b10100 O
b10100 b
b11000010001100011 ,"
b11000010001100011 B
b11000010001100011 o
b11000010001100011 ."
b11000010001100011 0"
b11000010001100011 5"
b11 1"
b10100 2
b10100 T
b10100 [
b10010 r
b10010 {
b10010 -
b10010 x
b10010 6"
b1100 R
b1100 4
b1100 P
b1100 l
b1100 2"
b1100 4"
1"
#320000
0"
#340000
b1 <
b1 f
b1 $"
b0 )
b0 ]
b0 8"
1(
b0 y
xN
b1000 1
b1000 e
b1000 3"
b0 w
b0 !"
b0 0
b0 _
b0 z
b0 )"
xS
b11111000 M
b0 r
b0 {
b0 -
b0 x
b0 6"
b0 :"
b11001 ;"
b11111111111111111111111111111000 9
b11111111111111111111111111111000 U
b11111111111111111111111111111000 Y
b11111111111111111111111111111000 -"
b11111111111111111111111111111000 /"
b1000 c
b10100 3
b10100 g
b10100 k
b1000 ;
b1000 O
b1000 b
b11111110000000000000110011100011 ,"
b11111110000000000000110011100011 B
b11111110000000000000110011100011 o
b11111110000000000000110011100011 ."
b11111110000000000000110011100011 0"
b11111110000000000000110011100011 5"
b100 1"
b1000 2
b1000 T
b1000 [
b10000 R
b10000 4
b10000 P
b10000 l
b10000 2"
b10000 4"
1"
#360000
0"
#380000
b10001 )
b10001 ]
b10001 8"
b0 <
b0 f
b0 $"
b10001 0
b10001 _
b10001 z
b10001 )"
0(
b10001 y
b11111111111111111111111111111110 u
0N
0=
b11 A
b11 n
b11 '"
1.
b1100 1
b1100 e
b1100 3"
b1001 w
b1001 !"
b1 >
b1 W
b1 t
0S
b1 M
b111001 ("
b1 }
1v
b10010 r
b10010 {
b10010 -
b10010 x
b10010 6"
b11 :"
b1 ,
b1 X
b1 *"
b1 7"
b1 9"
b11 ;"
b10000000001 9
b10000000001 U
b10000000001 Y
b10000000001 -"
b10000000001 /"
b110011 %"
b1 q
b1001 c
b1100 3
b1100 g
b1100 k
b1001 ;
b1001 O
b1001 b
b1000000000100011000000110110011 ,"
b1000000000100011000000110110011 B
b1000000000100011000000110110011 o
b1000000000100011000000110110011 ."
b1000000000100011000000110110011 0"
b1000000000100011000000110110011 5"
b10 1"
b10000001001 2
b10000001001 T
b10000001001 [
b1000 R
b1000 4
b1000 P
b1000 l
b1000 2"
b1000 4"
1"
#400000
0"
#420000
0*
b10001 )
b10001 ]
b10001 8"
1:
b11111111111111111111111111111111 u
1=
b1 A
b1 n
b1 '"
0.
b10000 1
b10000 e
b10000 3"
b0 >
b0 W
b0 t
b1000 M
b100101000 ("
b0 }
0v
b1 ~
b10001 y
b0 ,
b0 X
b0 *"
b0 7"
b0 9"
b1000 ;"
b1000 9
b1000 U
b1000 Y
b1000 -"
b1000 /"
b1100011 %"
b0 q
b1 ?
b1 p
b1 s
b10100 c
b10001 w
b10001 !"
b10001 0
b10001 _
b10001 z
b10001 )"
b10000 3
b10000 g
b10000 k
b10100 ;
b10100 O
b10100 b
b11000010001100011 ,"
b11000010001100011 B
b11000010001100011 o
b11000010001100011 ."
b11000010001100011 0"
b11000010001100011 5"
b11 1"
b10100 2
b10100 T
b10100 [
b10001 r
b10001 {
b10001 -
b10001 x
b10001 6"
b1100 R
b1100 4
b1100 P
b1100 l
b1100 2"
b1100 4"
1"
#440000
0"
#460000
b1 <
b1 f
b1 $"
b0 )
b0 ]
b0 8"
1(
b0 y
xN
b1000 1
b1000 e
b1000 3"
b0 w
b0 !"
b0 0
b0 _
b0 z
b0 )"
xS
b11111000 M
b0 r
b0 {
b0 -
b0 x
b0 6"
b0 :"
b11001 ;"
b11111111111111111111111111111000 9
b11111111111111111111111111111000 U
b11111111111111111111111111111000 Y
b11111111111111111111111111111000 -"
b11111111111111111111111111111000 /"
b1000 c
b10100 3
b10100 g
b10100 k
b1000 ;
b1000 O
b1000 b
b11111110000000000000110011100011 ,"
b11111110000000000000110011100011 B
b11111110000000000000110011100011 o
b11111110000000000000110011100011 ."
b11111110000000000000110011100011 0"
b11111110000000000000110011100011 5"
b100 1"
b1000 2
b1000 T
b1000 [
b10000 R
b10000 4
b10000 P
b10000 l
b10000 2"
b10000 4"
1"
#480000
0"
#500000
b10000 )
b10000 ]
b10000 8"
b0 <
b0 f
b0 $"
b10000 0
b10000 _
b10000 z
b10000 )"
0(
b10000 y
b11111111111111111111111111111110 u
0N
0=
b11 A
b11 n
b11 '"
1.
b1100 1
b1100 e
b1100 3"
b1000 w
b1000 !"
b1 >
b1 W
b1 t
0S
b1 M
b111001 ("
b1 }
1v
b10001 r
b10001 {
b10001 -
b10001 x
b10001 6"
b11 :"
b1 ,
b1 X
b1 *"
b1 7"
b1 9"
b11 ;"
b10000000001 9
b10000000001 U
b10000000001 Y
b10000000001 -"
b10000000001 /"
b110011 %"
b1 q
b1001 c
b1100 3
b1100 g
b1100 k
b1001 ;
b1001 O
b1001 b
b1000000000100011000000110110011 ,"
b1000000000100011000000110110011 B
b1000000000100011000000110110011 o
b1000000000100011000000110110011 ."
b1000000000100011000000110110011 0"
b1000000000100011000000110110011 5"
b10 1"
b10000001001 2
b10000001001 T
b10000001001 [
b1000 R
b1000 4
b1000 P
b1000 l
b1000 2"
b1000 4"
1"
#520000
0"
#540000
0*
b10000 )
b10000 ]
b10000 8"
1:
b11111111111111111111111111111111 u
1=
b1 A
b1 n
b1 '"
0.
b10000 w
b10000 !"
b10000 1
b10000 e
b10000 3"
b0 >
b0 W
b0 t
b1000 M
b100101000 ("
b0 }
0v
b1 ~
b10000 y
b0 ,
b0 X
b0 *"
b0 7"
b0 9"
b1000 ;"
b1000 9
b1000 U
b1000 Y
b1000 -"
b1000 /"
b1100011 %"
b0 q
b1 ?
b1 p
b1 s
b10100 c
b10000 0
b10000 _
b10000 z
b10000 )"
b10000 3
b10000 g
b10000 k
b10100 ;
b10100 O
b10100 b
b11000010001100011 ,"
b11000010001100011 B
b11000010001100011 o
b11000010001100011 ."
b11000010001100011 0"
b11000010001100011 5"
b11 1"
b10100 2
b10100 T
b10100 [
b10000 r
b10000 {
b10000 -
b10000 x
b10000 6"
b1100 R
b1100 4
b1100 P
b1100 l
b1100 2"
b1100 4"
1"
#560000
0"
#580000
b1 <
b1 f
b1 $"
b0 )
b0 ]
b0 8"
1(
b0 y
xN
b1000 1
b1000 e
b1000 3"
b0 w
b0 !"
b0 0
b0 _
b0 z
b0 )"
xS
b11111000 M
b0 r
b0 {
b0 -
b0 x
b0 6"
b0 :"
b11001 ;"
b11111111111111111111111111111000 9
b11111111111111111111111111111000 U
b11111111111111111111111111111000 Y
b11111111111111111111111111111000 -"
b11111111111111111111111111111000 /"
b1000 c
b10100 3
b10100 g
b10100 k
b1000 ;
b1000 O
b1000 b
b11111110000000000000110011100011 ,"
b11111110000000000000110011100011 B
b11111110000000000000110011100011 o
b11111110000000000000110011100011 ."
b11111110000000000000110011100011 0"
b11111110000000000000110011100011 5"
b100 1"
b1000 2
b1000 T
b1000 [
b10000 R
b10000 4
b10000 P
b10000 l
b10000 2"
b10000 4"
1"
#600000
0"
#620000
b1111 )
b1111 ]
b1111 8"
b0 <
b0 f
b0 $"
b1111 0
b1111 _
b1111 z
b1111 )"
0(
b1111 y
b11111111111111111111111111111110 u
0N
0=
b11 A
b11 n
b11 '"
1.
b1100 1
b1100 e
b1100 3"
b1000 w
b1000 !"
b1 >
b1 W
b1 t
0S
b1 M
b111001 ("
b1 }
1v
b10000 r
b10000 {
b10000 -
b10000 x
b10000 6"
b11 :"
b1 ,
b1 X
b1 *"
b1 7"
b1 9"
b11 ;"
b10000000001 9
b10000000001 U
b10000000001 Y
b10000000001 -"
b10000000001 /"
b110011 %"
b1 q
b1001 c
b1100 3
b1100 g
b1100 k
b1001 ;
b1001 O
b1001 b
b1000000000100011000000110110011 ,"
b1000000000100011000000110110011 B
b1000000000100011000000110110011 o
b1000000000100011000000110110011 ."
b1000000000100011000000110110011 0"
b1000000000100011000000110110011 5"
b10 1"
b10000001001 2
b10000001001 T
b10000001001 [
b1000 R
b1000 4
b1000 P
b1000 l
b1000 2"
b1000 4"
1"
#640000
0"
#660000
0*
b1111 )
b1111 ]
b1111 8"
1:
b11111111111111111111111111111111 u
1=
b1 A
b1 n
b1 '"
0.
b10000 1
b10000 e
b10000 3"
b0 >
b0 W
b0 t
b1000 M
b100101000 ("
b0 }
0v
b1 ~
b1111 y
b0 ,
b0 X
b0 *"
b0 7"
b0 9"
b1000 ;"
b1000 9
b1000 U
b1000 Y
b1000 -"
b1000 /"
b1100011 %"
b0 q
b1 ?
b1 p
b1 s
b10100 c
b1111 w
b1111 !"
b1111 0
b1111 _
b1111 z
b1111 )"
b10000 3
b10000 g
b10000 k
b10100 ;
b10100 O
b10100 b
b11000010001100011 ,"
b11000010001100011 B
b11000010001100011 o
b11000010001100011 ."
b11000010001100011 0"
b11000010001100011 5"
b11 1"
b10100 2
b10100 T
b10100 [
b1111 r
b1111 {
b1111 -
b1111 x
b1111 6"
b1100 R
b1100 4
b1100 P
b1100 l
b1100 2"
b1100 4"
1"
#680000
0"
#700000
b1 <
b1 f
b1 $"
b0 )
b0 ]
b0 8"
1(
b0 y
xN
b1000 1
b1000 e
b1000 3"
b0 w
b0 !"
b0 0
b0 _
b0 z
b0 )"
xS
b11111000 M
b0 r
b0 {
b0 -
b0 x
b0 6"
b0 :"
b11001 ;"
b11111111111111111111111111111000 9
b11111111111111111111111111111000 U
b11111111111111111111111111111000 Y
b11111111111111111111111111111000 -"
b11111111111111111111111111111000 /"
b1000 c
b10100 3
b10100 g
b10100 k
b1000 ;
b1000 O
b1000 b
b11111110000000000000110011100011 ,"
b11111110000000000000110011100011 B
b11111110000000000000110011100011 o
b11111110000000000000110011100011 ."
b11111110000000000000110011100011 0"
b11111110000000000000110011100011 5"
b100 1"
b1000 2
b1000 T
b1000 [
b10000 R
b10000 4
b10000 P
b10000 l
b10000 2"
b10000 4"
1"
#720000
0"
#740000
b1110 )
b1110 ]
b1110 8"
b0 <
b0 f
b0 $"
b1110 0
b1110 _
b1110 z
b1110 )"
0(
b1110 y
b11111111111111111111111111111110 u
0N
0=
b11 A
b11 n
b11 '"
1.
b1100 1
b1100 e
b1100 3"
b111 w
b111 !"
b1 >
b1 W
b1 t
0S
b1 M
b111001 ("
b1 }
1v
b1111 r
b1111 {
b1111 -
b1111 x
b1111 6"
b11 :"
b1 ,
b1 X
b1 *"
b1 7"
b1 9"
b11 ;"
b10000000001 9
b10000000001 U
b10000000001 Y
b10000000001 -"
b10000000001 /"
b110011 %"
b1 q
b1001 c
b1100 3
b1100 g
b1100 k
b1001 ;
b1001 O
b1001 b
b1000000000100011000000110110011 ,"
b1000000000100011000000110110011 B
b1000000000100011000000110110011 o
b1000000000100011000000110110011 ."
b1000000000100011000000110110011 0"
b1000000000100011000000110110011 5"
b10 1"
b10000001001 2
b10000001001 T
b10000001001 [
b1000 R
b1000 4
b1000 P
b1000 l
b1000 2"
b1000 4"
1"
#760000
0"
#780000
0*
b1110 )
b1110 ]
b1110 8"
1:
b11111111111111111111111111111111 u
1=
b1 A
b1 n
b1 '"
0.
b1110 w
b1110 !"
b10000 1
b10000 e
b10000 3"
b0 >
b0 W
b0 t
b1000 M
b100101000 ("
b0 }
0v
b1 ~
b1110 y
b0 ,
b0 X
b0 *"
b0 7"
b0 9"
b1000 ;"
b1000 9
b1000 U
b1000 Y
b1000 -"
b1000 /"
b1100011 %"
b0 q
b1 ?
b1 p
b1 s
b10100 c
b1110 0
b1110 _
b1110 z
b1110 )"
b10000 3
b10000 g
b10000 k
b10100 ;
b10100 O
b10100 b
b11000010001100011 ,"
b11000010001100011 B
b11000010001100011 o
b11000010001100011 ."
b11000010001100011 0"
b11000010001100011 5"
b11 1"
b10100 2
b10100 T
b10100 [
b1110 r
b1110 {
b1110 -
b1110 x
b1110 6"
b1100 R
b1100 4
b1100 P
b1100 l
b1100 2"
b1100 4"
1"
#800000
0"
#820000
b1 <
b1 f
b1 $"
b0 )
b0 ]
b0 8"
1(
b0 y
xN
b1000 1
b1000 e
b1000 3"
b0 w
b0 !"
b0 0
b0 _
b0 z
b0 )"
xS
b11111000 M
b0 r
b0 {
b0 -
b0 x
b0 6"
b0 :"
b11001 ;"
b11111111111111111111111111111000 9
b11111111111111111111111111111000 U
b11111111111111111111111111111000 Y
b11111111111111111111111111111000 -"
b11111111111111111111111111111000 /"
b1000 c
b10100 3
b10100 g
b10100 k
b1000 ;
b1000 O
b1000 b
b11111110000000000000110011100011 ,"
b11111110000000000000110011100011 B
b11111110000000000000110011100011 o
b11111110000000000000110011100011 ."
b11111110000000000000110011100011 0"
b11111110000000000000110011100011 5"
b100 1"
b1000 2
b1000 T
b1000 [
b10000 R
b10000 4
b10000 P
b10000 l
b10000 2"
b10000 4"
1"
#840000
0"
#860000
b1101 )
b1101 ]
b1101 8"
b0 <
b0 f
b0 $"
b1101 0
b1101 _
b1101 z
b1101 )"
0(
b1101 y
b11111111111111111111111111111110 u
0N
0=
b11 A
b11 n
b11 '"
1.
b1100 1
b1100 e
b1100 3"
b111 w
b111 !"
b1 >
b1 W
b1 t
0S
b1 M
b111001 ("
b1 }
1v
b1110 r
b1110 {
b1110 -
b1110 x
b1110 6"
b11 :"
b1 ,
b1 X
b1 *"
b1 7"
b1 9"
b11 ;"
b10000000001 9
b10000000001 U
b10000000001 Y
b10000000001 -"
b10000000001 /"
b110011 %"
b1 q
b1001 c
b1100 3
b1100 g
b1100 k
b1001 ;
b1001 O
b1001 b
b1000000000100011000000110110011 ,"
b1000000000100011000000110110011 B
b1000000000100011000000110110011 o
b1000000000100011000000110110011 ."
b1000000000100011000000110110011 0"
b1000000000100011000000110110011 5"
b10 1"
b10000001001 2
b10000001001 T
b10000001001 [
b1000 R
b1000 4
b1000 P
b1000 l
b1000 2"
b1000 4"
1"
#880000
0"
#900000
0*
b1101 )
b1101 ]
b1101 8"
1:
b11111111111111111111111111111111 u
1=
b1 A
b1 n
b1 '"
0.
b10000 1
b10000 e
b10000 3"
b0 >
b0 W
b0 t
b1000 M
b100101000 ("
b0 }
0v
b1 ~
b1101 y
b0 ,
b0 X
b0 *"
b0 7"
b0 9"
b1000 ;"
b1000 9
b1000 U
b1000 Y
b1000 -"
b1000 /"
b1100011 %"
b0 q
b1 ?
b1 p
b1 s
b10100 c
b1101 w
b1101 !"
b1101 0
b1101 _
b1101 z
b1101 )"
b10000 3
b10000 g
b10000 k
b10100 ;
b10100 O
b10100 b
b11000010001100011 ,"
b11000010001100011 B
b11000010001100011 o
b11000010001100011 ."
b11000010001100011 0"
b11000010001100011 5"
b11 1"
b10100 2
b10100 T
b10100 [
b1101 r
b1101 {
b1101 -
b1101 x
b1101 6"
b1100 R
b1100 4
b1100 P
b1100 l
b1100 2"
b1100 4"
1"
#920000
0"
#940000
b1 <
b1 f
b1 $"
b0 )
b0 ]
b0 8"
1(
b0 y
xN
b1000 1
b1000 e
b1000 3"
b0 w
b0 !"
b0 0
b0 _
b0 z
b0 )"
xS
b11111000 M
b0 r
b0 {
b0 -
b0 x
b0 6"
b0 :"
b11001 ;"
b11111111111111111111111111111000 9
b11111111111111111111111111111000 U
b11111111111111111111111111111000 Y
b11111111111111111111111111111000 -"
b11111111111111111111111111111000 /"
b1000 c
b10100 3
b10100 g
b10100 k
b1000 ;
b1000 O
b1000 b
b11111110000000000000110011100011 ,"
b11111110000000000000110011100011 B
b11111110000000000000110011100011 o
b11111110000000000000110011100011 ."
b11111110000000000000110011100011 0"
b11111110000000000000110011100011 5"
b100 1"
b1000 2
b1000 T
b1000 [
b10000 R
b10000 4
b10000 P
b10000 l
b10000 2"
b10000 4"
1"
#960000
0"
